<svg width="377" height="328" viewBox="0 0 377 328" fill="none" xmlns="http://www.w3.org/2000/svg">
<g clip-path="url(#clip0)">
<g clip-path="url(#clip1)">
<rect width="333.293" height="471.651" transform="translate(423.408 -2.84291) rotate(90)" fill="white"/>
<rect x="423.408" y="-2.84292" width="333.293" height="471.651" transform="rotate(90 423.408 -2.84292)" fill="#571D6B"/>
<g filter="url(#filter0_f)">
<circle cx="-191.643" cy="182.569" r="355.139" transform="rotate(90 -191.643 182.569)" fill="#FFB865"/>
</g>
<g filter="url(#filter1_f)">
<circle cx="576.33" cy="30.7664" r="355.139" transform="rotate(90 576.33 30.7664)" fill="#FFAE50"/>
</g>
<g filter="url(#filter2_f)">
<circle cx="509.672" cy="436.319" r="355.139" transform="rotate(90 509.672 436.319)" fill="#4742B0"/>
</g>
<g filter="url(#filter3_f)">
<circle cx="591.455" cy="491.214" r="355.139" transform="rotate(90 591.455 491.214)" fill="#9591FF"/>
</g>
<g filter="url(#filter4_f)">
<path d="M102.348 300.429C165.535 325.458 172.813 276.398 197.257 269.192C256.212 247.576 234.643 223.078 261.964 187.052C289.284 151.026 282.095 165.436 280.657 125.085C279.219 84.735 292.332 38.6471 292.332 22.5588C292.332 -11.3795 269.362 -9.21587 252.893 -24.5306C222.784 -52.5299 204.973 -97.922 157.901 -94.5285C143.488 -93.4894 98.0406 -56.4916 79.3476 -57.9327C60.6546 -59.3738 33.3341 -46.4044 -1.17603 -47.8455C-35.6862 -49.2866 -55.7039 -58.0932 -71.521 -17.743C-87.3382 22.6073 -96.0049 140.002 -85.9394 158.736C-75.874 177.47 -32.7648 241.244 -34.2027 283.035C-35.6407 324.827 60.3398 283.788 102.348 300.429Z" fill="url(#paint0_radial)"/>
<path d="M102.348 300.429C165.535 325.458 172.813 276.398 197.257 269.192C256.212 247.576 234.643 223.078 261.964 187.052C289.284 151.026 282.095 165.436 280.657 125.085C279.219 84.735 292.332 38.6471 292.332 22.5588C292.332 -11.3795 269.362 -9.21587 252.893 -24.5306C222.784 -52.5299 204.973 -97.922 157.901 -94.5285C143.488 -93.4894 98.0406 -56.4916 79.3476 -57.9327C60.6546 -59.3738 33.3341 -46.4044 -1.17603 -47.8455C-35.6862 -49.2866 -55.7039 -58.0932 -71.521 -17.743C-87.3382 22.6073 -96.0049 140.002 -85.9394 158.736C-75.874 177.47 -32.7648 241.244 -34.2027 283.035C-35.6407 324.827 60.3398 283.788 102.348 300.429Z" fill="url(#paint1_radial)"/>
<path d="M102.348 300.429C165.535 325.458 172.813 276.398 197.257 269.192C256.212 247.576 234.643 223.078 261.964 187.052C289.284 151.026 282.095 165.436 280.657 125.085C279.219 84.735 292.332 38.6471 292.332 22.5588C292.332 -11.3795 269.362 -9.21587 252.893 -24.5306C222.784 -52.5299 204.973 -97.922 157.901 -94.5285C143.488 -93.4894 98.0406 -56.4916 79.3476 -57.9327C60.6546 -59.3738 33.3341 -46.4044 -1.17603 -47.8455C-35.6862 -49.2866 -55.7039 -58.0932 -71.521 -17.743C-87.3382 22.6073 -96.0049 140.002 -85.9394 158.736C-75.874 177.47 -32.7648 241.244 -34.2027 283.035C-35.6407 324.827 60.3398 283.788 102.348 300.429Z" fill="url(#paint2_radial)"/>
<path d="M102.348 300.429C165.535 325.458 172.813 276.398 197.257 269.192C256.212 247.576 234.643 223.078 261.964 187.052C289.284 151.026 282.095 165.436 280.657 125.085C279.219 84.735 292.332 38.6471 292.332 22.5588C292.332 -11.3795 269.362 -9.21587 252.893 -24.5306C222.784 -52.5299 204.973 -97.922 157.901 -94.5285C143.488 -93.4894 98.0406 -56.4916 79.3476 -57.9327C60.6546 -59.3738 33.3341 -46.4044 -1.17603 -47.8455C-35.6862 -49.2866 -55.7039 -58.0932 -71.521 -17.743C-87.3382 22.6073 -96.0049 140.002 -85.9394 158.736C-75.874 177.47 -32.7648 241.244 -34.2027 283.035C-35.6407 324.827 60.3398 283.788 102.348 300.429Z" fill="url(#paint3_radial)"/>
<path d="M102.348 300.429C165.535 325.458 172.813 276.398 197.257 269.192C256.212 247.576 234.643 223.078 261.964 187.052C289.284 151.026 282.095 165.436 280.657 125.085C279.219 84.735 292.332 38.6471 292.332 22.5588C292.332 -11.3795 269.362 -9.21587 252.893 -24.5306C222.784 -52.5299 204.973 -97.922 157.901 -94.5285C143.488 -93.4894 98.0406 -56.4916 79.3476 -57.9327C60.6546 -59.3738 33.3341 -46.4044 -1.17603 -47.8455C-35.6862 -49.2866 -55.7039 -58.0932 -71.521 -17.743C-87.3382 22.6073 -96.0049 140.002 -85.9394 158.736C-75.874 177.47 -32.7648 241.244 -34.2027 283.035C-35.6407 324.827 60.3398 283.788 102.348 300.429Z" fill="url(#paint4_radial)"/>
<path d="M102.348 300.429C165.535 325.458 172.813 276.398 197.257 269.192C256.212 247.576 234.643 223.078 261.964 187.052C289.284 151.026 282.095 165.436 280.657 125.085C279.219 84.735 292.332 38.6471 292.332 22.5588C292.332 -11.3795 269.362 -9.21587 252.893 -24.5306C222.784 -52.5299 204.973 -97.922 157.901 -94.5285C143.488 -93.4894 98.0406 -56.4916 79.3476 -57.9327C60.6546 -59.3738 33.3341 -46.4044 -1.17603 -47.8455C-35.6862 -49.2866 -55.7039 -58.0932 -71.521 -17.743C-87.3382 22.6073 -96.0049 140.002 -85.9394 158.736C-75.874 177.47 -32.7648 241.244 -34.2027 283.035C-35.6407 324.827 60.3398 283.788 102.348 300.429Z" fill="url(#paint5_radial)"/>
</g>
</g>
<g opacity="0.5">
<rect x="0.0839844" width="392" height="344" fill="#C4C4C4"/>
<rect x="0.0839844" width="392" height="344" fill="url(#paint6_linear)"/>
</g>
<path d="M-57.3546 140.483C-67.0954 171.343 -40.6568 164.03 -35.4644 172.435C-20.6925 191.819 -8.90219 177.947 11.7433 181.488C32.3888 185.029 24.3403 185.129 45.6692 176.103C66.9981 167.078 92.1864 162.752 100.723 159.386C118.73 152.285 116.295 143.424 123.498 133.541C136.668 115.473 159.755 98.7536 155.317 80.3754C153.959 74.7478 131.782 64.0595 131.5 56.1778C131.217 48.296 122.805 39.9308 121.637 25.635C120.468 11.3393 124.019 1.37931 101.724 3.40763C79.4285 5.43594 16.6545 26.4836 7.27831 34.4849C-2.09792 42.4863 -33.5206 73.3106 -55.7752 81.4714C-78.0298 89.6322 -50.8787 119.967 -57.3546 140.483Z" fill="url(#paint7_radial)"/>
<path d="M-57.3546 140.483C-67.0954 171.343 -40.6568 164.03 -35.4644 172.435C-20.6925 191.819 -8.90219 177.947 11.7433 181.488C32.3888 185.029 24.3403 185.129 45.6692 176.103C66.9981 167.078 92.1864 162.752 100.723 159.386C118.73 152.285 116.295 143.424 123.498 133.541C136.668 115.473 159.755 98.7536 155.317 80.3754C153.959 74.7478 131.782 64.0595 131.5 56.1778C131.217 48.296 122.805 39.9308 121.637 25.635C120.468 11.3393 124.019 1.37931 101.724 3.40763C79.4285 5.43594 16.6545 26.4836 7.27831 34.4849C-2.09792 42.4863 -33.5206 73.3106 -55.7752 81.4714C-78.0298 89.6322 -50.8787 119.967 -57.3546 140.483Z" fill="url(#paint8_radial)"/>
<path d="M-57.3546 140.483C-67.0954 171.343 -40.6568 164.03 -35.4644 172.435C-20.6925 191.819 -8.90219 177.947 11.7433 181.488C32.3888 185.029 24.3403 185.129 45.6692 176.103C66.9981 167.078 92.1864 162.752 100.723 159.386C118.73 152.285 116.295 143.424 123.498 133.541C136.668 115.473 159.755 98.7536 155.317 80.3754C153.959 74.7478 131.782 64.0595 131.5 56.1778C131.217 48.296 122.805 39.9308 121.637 25.635C120.468 11.3393 124.019 1.37931 101.724 3.40763C79.4285 5.43594 16.6545 26.4836 7.27831 34.4849C-2.09792 42.4863 -33.5206 73.3106 -55.7752 81.4714C-78.0298 89.6322 -50.8787 119.967 -57.3546 140.483Z" fill="url(#paint9_radial)"/>
<path d="M-57.3546 140.483C-67.0954 171.343 -40.6568 164.03 -35.4644 172.435C-20.6925 191.819 -8.90219 177.947 11.7433 181.488C32.3888 185.029 24.3403 185.129 45.6692 176.103C66.9981 167.078 92.1864 162.752 100.723 159.386C118.73 152.285 116.295 143.424 123.498 133.541C136.668 115.473 159.755 98.7536 155.317 80.3754C153.959 74.7478 131.782 64.0595 131.5 56.1778C131.217 48.296 122.805 39.9308 121.637 25.635C120.468 11.3393 124.019 1.37931 101.724 3.40763C79.4285 5.43594 16.6545 26.4836 7.27831 34.4849C-2.09792 42.4863 -33.5206 73.3106 -55.7752 81.4714C-78.0298 89.6322 -50.8787 119.967 -57.3546 140.483Z" fill="url(#paint10_radial)"/>
<path d="M-57.3546 140.483C-67.0954 171.343 -40.6568 164.03 -35.4644 172.435C-20.6925 191.819 -8.90219 177.947 11.7433 181.488C32.3888 185.029 24.3403 185.129 45.6692 176.103C66.9981 167.078 92.1864 162.752 100.723 159.386C118.73 152.285 116.295 143.424 123.498 133.541C136.668 115.473 159.755 98.7536 155.317 80.3754C153.959 74.7478 131.782 64.0595 131.5 56.1778C131.217 48.296 122.805 39.9308 121.637 25.635C120.468 11.3393 124.019 1.37931 101.724 3.40763C79.4285 5.43594 16.6545 26.4836 7.27831 34.4849C-2.09792 42.4863 -33.5206 73.3106 -55.7752 81.4714C-78.0298 89.6322 -50.8787 119.967 -57.3546 140.483Z" fill="url(#paint11_radial)"/>
<path d="M-57.3546 140.483C-67.0954 171.343 -40.6568 164.03 -35.4644 172.435C-20.6925 191.819 -8.90219 177.947 11.7433 181.488C32.3888 185.029 24.3403 185.129 45.6692 176.103C66.9981 167.078 92.1864 162.752 100.723 159.386C118.73 152.285 116.295 143.424 123.498 133.541C136.668 115.473 159.755 98.7536 155.317 80.3754C153.959 74.7478 131.782 64.0595 131.5 56.1778C131.217 48.296 122.805 39.9308 121.637 25.635C120.468 11.3393 124.019 1.37931 101.724 3.40763C79.4285 5.43594 16.6545 26.4836 7.27831 34.4849C-2.09792 42.4863 -33.5206 73.3106 -55.7752 81.4714C-78.0298 89.6322 -50.8787 119.967 -57.3546 140.483Z" fill="url(#paint12_radial)"/>
<path d="M-57.3546 140.483C-67.0954 171.343 -40.6568 164.03 -35.4644 172.435C-20.6925 191.819 -8.90219 177.947 11.7433 181.488C32.3888 185.029 24.3403 185.129 45.6692 176.103C66.9981 167.078 92.1864 162.752 100.723 159.386C118.73 152.285 116.295 143.424 123.498 133.541C136.668 115.473 159.755 98.7536 155.317 80.3754C153.959 74.7478 131.782 64.0595 131.5 56.1778C131.217 48.296 122.805 39.9308 121.637 25.635C120.468 11.3393 124.019 1.37931 101.724 3.40763C79.4285 5.43594 16.6545 26.4836 7.27831 34.4849C-2.09792 42.4863 -33.5206 73.3106 -55.7752 81.4714C-78.0298 89.6322 -50.8787 119.967 -57.3546 140.483Z" fill="url(#paint13_radial)"/>
<path d="M-54.9855 103.782C-64.7263 134.642 -38.2877 127.328 -33.0952 135.733C-18.3234 155.117 -6.53306 141.245 14.1124 144.786C34.7579 148.327 26.7095 148.427 48.0383 139.401C69.3672 130.376 94.5555 126.051 103.092 122.685C121.099 115.584 118.664 106.722 125.868 96.8395C139.037 78.7717 162.124 62.0519 157.686 43.6738C156.328 38.0462 134.151 27.3579 133.869 19.4761C133.586 11.5944 125.174 3.22917 124.006 -11.0666C122.837 -25.3624 126.389 -35.3223 104.093 -33.294C81.7976 -31.2657 19.0237 -10.218 9.64744 -2.2167C0.271208 5.78462 -31.1515 36.609 -53.4061 44.7697C-75.6607 52.9305 -48.5095 83.2653 -54.9855 103.782Z" fill="url(#paint14_radial)"/>
<path d="M-54.9855 103.782C-64.7263 134.642 -38.2877 127.328 -33.0952 135.733C-18.3234 155.117 -6.53306 141.245 14.1124 144.786C34.7579 148.327 26.7095 148.427 48.0383 139.401C69.3672 130.376 94.5555 126.051 103.092 122.685C121.099 115.584 118.664 106.722 125.868 96.8395C139.037 78.7717 162.124 62.0519 157.686 43.6738C156.328 38.0462 134.151 27.3579 133.869 19.4761C133.586 11.5944 125.174 3.22917 124.006 -11.0666C122.837 -25.3624 126.389 -35.3223 104.093 -33.294C81.7976 -31.2657 19.0237 -10.218 9.64744 -2.2167C0.271208 5.78462 -31.1515 36.609 -53.4061 44.7697C-75.6607 52.9305 -48.5095 83.2653 -54.9855 103.782Z" fill="url(#paint15_radial)"/>
<path d="M-54.9855 103.782C-64.7263 134.642 -38.2877 127.328 -33.0952 135.733C-18.3234 155.117 -6.53306 141.245 14.1124 144.786C34.7579 148.327 26.7095 148.427 48.0383 139.401C69.3672 130.376 94.5555 126.051 103.092 122.685C121.099 115.584 118.664 106.722 125.868 96.8395C139.037 78.7717 162.124 62.0519 157.686 43.6738C156.328 38.0462 134.151 27.3579 133.869 19.4761C133.586 11.5944 125.174 3.22917 124.006 -11.0666C122.837 -25.3624 126.389 -35.3223 104.093 -33.294C81.7976 -31.2657 19.0237 -10.218 9.64744 -2.2167C0.271208 5.78462 -31.1515 36.609 -53.4061 44.7697C-75.6607 52.9305 -48.5095 83.2653 -54.9855 103.782Z" fill="url(#paint16_radial)"/>
<path d="M-54.9855 103.782C-64.7263 134.642 -38.2877 127.328 -33.0952 135.733C-18.3234 155.117 -6.53306 141.245 14.1124 144.786C34.7579 148.327 26.7095 148.427 48.0383 139.401C69.3672 130.376 94.5555 126.051 103.092 122.685C121.099 115.584 118.664 106.722 125.868 96.8395C139.037 78.7717 162.124 62.0519 157.686 43.6738C156.328 38.0462 134.151 27.3579 133.869 19.4761C133.586 11.5944 125.174 3.22917 124.006 -11.0666C122.837 -25.3624 126.389 -35.3223 104.093 -33.294C81.7976 -31.2657 19.0237 -10.218 9.64744 -2.2167C0.271208 5.78462 -31.1515 36.609 -53.4061 44.7697C-75.6607 52.9305 -48.5095 83.2653 -54.9855 103.782Z" fill="url(#paint17_radial)"/>
<path d="M-54.9855 103.782C-64.7263 134.642 -38.2877 127.328 -33.0952 135.733C-18.3234 155.117 -6.53306 141.245 14.1124 144.786C34.7579 148.327 26.7095 148.427 48.0383 139.401C69.3672 130.376 94.5555 126.051 103.092 122.685C121.099 115.584 118.664 106.722 125.868 96.8395C139.037 78.7717 162.124 62.0519 157.686 43.6738C156.328 38.0462 134.151 27.3579 133.869 19.4761C133.586 11.5944 125.174 3.22917 124.006 -11.0666C122.837 -25.3624 126.389 -35.3223 104.093 -33.294C81.7976 -31.2657 19.0237 -10.218 9.64744 -2.2167C0.271208 5.78462 -31.1515 36.609 -53.4061 44.7697C-75.6607 52.9305 -48.5095 83.2653 -54.9855 103.782Z" fill="url(#paint18_radial)"/>
<path d="M-54.9855 103.782C-64.7263 134.642 -38.2877 127.328 -33.0952 135.733C-18.3234 155.117 -6.53306 141.245 14.1124 144.786C34.7579 148.327 26.7095 148.427 48.0383 139.401C69.3672 130.376 94.5555 126.051 103.092 122.685C121.099 115.584 118.664 106.722 125.868 96.8395C139.037 78.7717 162.124 62.0519 157.686 43.6738C156.328 38.0462 134.151 27.3579 133.869 19.4761C133.586 11.5944 125.174 3.22917 124.006 -11.0666C122.837 -25.3624 126.389 -35.3223 104.093 -33.294C81.7976 -31.2657 19.0237 -10.218 9.64744 -2.2167C0.271208 5.78462 -31.1515 36.609 -53.4061 44.7697C-75.6607 52.9305 -48.5095 83.2653 -54.9855 103.782Z" fill="url(#paint19_radial)"/>
<path d="M-54.9855 103.782C-64.7263 134.642 -38.2877 127.328 -33.0952 135.733C-18.3234 155.117 -6.53306 141.245 14.1124 144.786C34.7579 148.327 26.7095 148.427 48.0383 139.401C69.3672 130.376 94.5555 126.051 103.092 122.685C121.099 115.584 118.664 106.722 125.868 96.8395C139.037 78.7717 162.124 62.0519 157.686 43.6738C156.328 38.0462 134.151 27.3579 133.869 19.4761C133.586 11.5944 125.174 3.22917 124.006 -11.0666C122.837 -25.3624 126.389 -35.3223 104.093 -33.294C81.7976 -31.2657 19.0237 -10.218 9.64744 -2.2167C0.271208 5.78462 -31.1515 36.609 -53.4061 44.7697C-75.6607 52.9305 -48.5095 83.2653 -54.9855 103.782Z" fill="url(#paint20_radial)"/>
<path d="M-59.7867 -13.2158C-86.2607 5.48084 -60.772 15.6076 -61.7352 25.433C-61.7297 49.7803 -43.9273 45.8472 -29.6353 61.1224C-15.3433 76.3977 -21.8126 71.6212 0.645631 77.3021C23.1038 82.9829 45.7845 94.7348 54.6235 97.2044C73.2694 102.414 76.7056 93.8884 88.4356 90.3648C109.881 83.9228 138.406 84.5373 146.019 67.2258C148.351 61.9249 137.175 40.0348 141.73 33.5882C146.286 27.1416 144.661 15.4056 152.402 3.31702C160.142 -8.77156 169.011 -14.56 150.027 -26.3958C131.043 -38.2315 68.2908 -59.343 55.9716 -58.6283C43.6523 -57.9136 -0.0653329 -52.3258 -22.7362 -59.2537C-45.4071 -66.1815 -42.186 -25.6459 -59.7867 -13.2158Z" fill="url(#paint21_radial)"/>
<path d="M-59.7867 -13.2158C-86.2607 5.48084 -60.772 15.6076 -61.7352 25.433C-61.7297 49.7803 -43.9273 45.8472 -29.6353 61.1224C-15.3433 76.3977 -21.8126 71.6212 0.645631 77.3021C23.1038 82.9829 45.7845 94.7348 54.6235 97.2044C73.2694 102.414 76.7056 93.8884 88.4356 90.3648C109.881 83.9228 138.406 84.5373 146.019 67.2258C148.351 61.9249 137.175 40.0348 141.73 33.5882C146.286 27.1416 144.661 15.4056 152.402 3.31702C160.142 -8.77156 169.011 -14.56 150.027 -26.3958C131.043 -38.2315 68.2908 -59.343 55.9716 -58.6283C43.6523 -57.9136 -0.0653329 -52.3258 -22.7362 -59.2537C-45.4071 -66.1815 -42.186 -25.6459 -59.7867 -13.2158Z" fill="url(#paint22_radial)"/>
<path d="M-59.7867 -13.2158C-86.2607 5.48084 -60.772 15.6076 -61.7352 25.433C-61.7297 49.7803 -43.9273 45.8472 -29.6353 61.1224C-15.3433 76.3977 -21.8126 71.6212 0.645631 77.3021C23.1038 82.9829 45.7845 94.7348 54.6235 97.2044C73.2694 102.414 76.7056 93.8884 88.4356 90.3648C109.881 83.9228 138.406 84.5373 146.019 67.2258C148.351 61.9249 137.175 40.0348 141.73 33.5882C146.286 27.1416 144.661 15.4056 152.402 3.31702C160.142 -8.77156 169.011 -14.56 150.027 -26.3958C131.043 -38.2315 68.2908 -59.343 55.9716 -58.6283C43.6523 -57.9136 -0.0653329 -52.3258 -22.7362 -59.2537C-45.4071 -66.1815 -42.186 -25.6459 -59.7867 -13.2158Z" fill="url(#paint23_radial)"/>
<path d="M-59.7867 -13.2158C-86.2607 5.48084 -60.772 15.6076 -61.7352 25.433C-61.7297 49.7803 -43.9273 45.8472 -29.6353 61.1224C-15.3433 76.3977 -21.8126 71.6212 0.645631 77.3021C23.1038 82.9829 45.7845 94.7348 54.6235 97.2044C73.2694 102.414 76.7056 93.8884 88.4356 90.3648C109.881 83.9228 138.406 84.5373 146.019 67.2258C148.351 61.9249 137.175 40.0348 141.73 33.5882C146.286 27.1416 144.661 15.4056 152.402 3.31702C160.142 -8.77156 169.011 -14.56 150.027 -26.3958C131.043 -38.2315 68.2908 -59.343 55.9716 -58.6283C43.6523 -57.9136 -0.0653329 -52.3258 -22.7362 -59.2537C-45.4071 -66.1815 -42.186 -25.6459 -59.7867 -13.2158Z" fill="url(#paint24_radial)"/>
<path d="M-59.7867 -13.2158C-86.2607 5.48084 -60.772 15.6076 -61.7352 25.433C-61.7297 49.7803 -43.9273 45.8472 -29.6353 61.1224C-15.3433 76.3977 -21.8126 71.6212 0.645631 77.3021C23.1038 82.9829 45.7845 94.7348 54.6235 97.2044C73.2694 102.414 76.7056 93.8884 88.4356 90.3648C109.881 83.9228 138.406 84.5373 146.019 67.2258C148.351 61.9249 137.175 40.0348 141.73 33.5882C146.286 27.1416 144.661 15.4056 152.402 3.31702C160.142 -8.77156 169.011 -14.56 150.027 -26.3958C131.043 -38.2315 68.2908 -59.343 55.9716 -58.6283C43.6523 -57.9136 -0.0653329 -52.3258 -22.7362 -59.2537C-45.4071 -66.1815 -42.186 -25.6459 -59.7867 -13.2158Z" fill="url(#paint25_radial)"/>
<path d="M-59.7867 -13.2158C-86.2607 5.48084 -60.772 15.6076 -61.7352 25.433C-61.7297 49.7803 -43.9273 45.8472 -29.6353 61.1224C-15.3433 76.3977 -21.8126 71.6212 0.645631 77.3021C23.1038 82.9829 45.7845 94.7348 54.6235 97.2044C73.2694 102.414 76.7056 93.8884 88.4356 90.3648C109.881 83.9228 138.406 84.5373 146.019 67.2258C148.351 61.9249 137.175 40.0348 141.73 33.5882C146.286 27.1416 144.661 15.4056 152.402 3.31702C160.142 -8.77156 169.011 -14.56 150.027 -26.3958C131.043 -38.2315 68.2908 -59.343 55.9716 -58.6283C43.6523 -57.9136 -0.0653329 -52.3258 -22.7362 -59.2537C-45.4071 -66.1815 -42.186 -25.6459 -59.7867 -13.2158Z" fill="url(#paint26_radial)"/>
</g>
<defs>
<filter id="filter0_f" x="-686.82" y="-312.609" width="990.355" height="990.355" filterUnits="userSpaceOnUse" color-interpolation-filters="sRGB">
<feFlood flood-opacity="0" result="BackgroundImageFix"/>
<feBlend mode="normal" in="SourceGraphic" in2="BackgroundImageFix" result="shape"/>
<feGaussianBlur stdDeviation="70.0194" result="effect1_foregroundBlur"/>
</filter>
<filter id="filter1_f" x="81.1525" y="-464.411" width="990.355" height="990.355" filterUnits="userSpaceOnUse" color-interpolation-filters="sRGB">
<feFlood flood-opacity="0" result="BackgroundImageFix"/>
<feBlend mode="normal" in="SourceGraphic" in2="BackgroundImageFix" result="shape"/>
<feGaussianBlur stdDeviation="70.0194" result="effect1_foregroundBlur"/>
</filter>
<filter id="filter2_f" x="14.4943" y="-58.8585" width="990.355" height="990.355" filterUnits="userSpaceOnUse" color-interpolation-filters="sRGB">
<feFlood flood-opacity="0" result="BackgroundImageFix"/>
<feBlend mode="normal" in="SourceGraphic" in2="BackgroundImageFix" result="shape"/>
<feGaussianBlur stdDeviation="70.0194" result="effect1_foregroundBlur"/>
</filter>
<filter id="filter3_f" x="96.2775" y="-3.96323" width="990.355" height="990.355" filterUnits="userSpaceOnUse" color-interpolation-filters="sRGB">
<feFlood flood-opacity="0" result="BackgroundImageFix"/>
<feBlend mode="normal" in="SourceGraphic" in2="BackgroundImageFix" result="shape"/>
<feGaussianBlur stdDeviation="70.0194" result="effect1_foregroundBlur"/>
</filter>
<filter id="filter4_f" x="-98.6562" y="-103.111" width="399.391" height="418.996" filterUnits="userSpaceOnUse" color-interpolation-filters="sRGB">
<feFlood flood-opacity="0" result="BackgroundImageFix"/>
<feBlend mode="normal" in="SourceGraphic" in2="BackgroundImageFix" result="shape"/>
<feGaussianBlur stdDeviation="4.20117" result="effect1_foregroundBlur"/>
</filter>
<radialGradient id="paint0_radial" cx="0" cy="0" r="1" gradientUnits="userSpaceOnUse" gradientTransform="translate(230.813 235.936) rotate(-165.72) scale(93.4775 101.942)">
<stop stop-color="#0038FF"/>
<stop offset="1" stop-color="#F2F2F2"/>
</radialGradient>
<radialGradient id="paint1_radial" cx="0" cy="0" r="1" gradientUnits="userSpaceOnUse" gradientTransform="translate(262.447 114.885) rotate(178.867) scale(308.161 336.155)">
<stop stop-color="#FF7300"/>
<stop offset="0.478602" stop-color="#FF7300" stop-opacity="0"/>
</radialGradient>
<radialGradient id="paint2_radial" cx="0" cy="0" r="1" gradientUnits="userSpaceOnUse" gradientTransform="translate(82.707 253.229) rotate(-67.8987) scale(133.762 145.365)">
<stop stop-color="#ED7448"/>
<stop offset="1" stop-color="#ED7448" stop-opacity="0"/>
</radialGradient>
<radialGradient id="paint3_radial" cx="0" cy="0" r="1" gradientUnits="userSpaceOnUse" gradientTransform="translate(-13.6337 -26.3408) rotate(65.2055) scale(85.7203 93.1701)">
<stop stop-color="#0466C7"/>
<stop offset="1" stop-color="#0866C4" stop-opacity="0"/>
</radialGradient>
<radialGradient id="paint4_radial" cx="0" cy="0" r="1" gradientUnits="userSpaceOnUse" gradientTransform="translate(245.684 -26.2274) rotate(164.257) scale(128.214 134.43)">
<stop stop-color="#0D3356"/>
<stop offset="1" stop-color="#0D3356" stop-opacity="0"/>
</radialGradient>
<radialGradient id="paint5_radial" cx="0" cy="0" r="1" gradientUnits="userSpaceOnUse" gradientTransform="translate(16.5624 114.885) rotate(6.97861) scale(189.774 207)">
<stop stop-color="#F5B3B0"/>
<stop offset="1" stop-color="#F5B3B0" stop-opacity="0"/>
</radialGradient>
<linearGradient id="paint6_linear" x1="-34.1448" y1="-48.8398" x2="359.081" y2="317.133" gradientUnits="userSpaceOnUse">
<stop stop-color="#5952BD"/>
<stop offset="0.484375" stop-color="#8E4D63"/>
<stop offset="1" stop-color="#FFAE50"/>
</linearGradient>
<radialGradient id="paint7_radial" cx="0" cy="0" r="1" gradientUnits="userSpaceOnUse" gradientTransform="translate(-15.9392 179.084) rotate(-80.2257) scale(42.1713 51.2674)">
<stop stop-color="#0038FF"/>
<stop offset="1" stop-color="#F2F2F2"/>
</radialGradient>
<radialGradient id="paint8_radial" cx="0" cy="0" r="1" gradientUnits="userSpaceOnUse" gradientTransform="translate(50.0612 166.585) rotate(-99.4094) scale(125.349 187.495)">
<stop stop-color="#FF7300"/>
<stop offset="0.478602" stop-color="#FF7300" stop-opacity="0"/>
</radialGradient>
<radialGradient id="paint9_radial" cx="0" cy="0" r="1" gradientUnits="userSpaceOnUse" gradientTransform="translate(-33.4112 122.643) rotate(-4.60351) scale(68.7987 64.1222)">
<stop stop-color="#ED7448"/>
<stop offset="1" stop-color="#ED7448" stop-opacity="0"/>
</radialGradient>
<radialGradient id="paint10_radial" cx="0" cy="0" r="1" gradientUnits="userSpaceOnUse" gradientTransform="translate(109.529 25.0827) rotate(141.843) scale(49.9487 36.2771)">
<stop stop-color="#0466C7"/>
<stop offset="1" stop-color="#0866C4" stop-opacity="0"/>
</radialGradient>
<radialGradient id="paint11_radial" cx="0" cy="0" r="1" gradientUnits="userSpaceOnUse" gradientTransform="translate(70.7701 104.377) rotate(-111.596) scale(82.5252 110.142)">
<stop stop-color="#0D3356"/>
<stop offset="1" stop-color="#0D3356" stop-opacity="0"/>
</radialGradient>
<radialGradient id="paint12_radial" cx="0" cy="0" r="1" gradientUnits="userSpaceOnUse" gradientTransform="translate(36.2872 66.8758) rotate(91.1865) scale(81.2269 109.725)">
<stop stop-color="#F5B3B0"/>
<stop offset="1" stop-color="#F5B3B0" stop-opacity="0"/>
</radialGradient>
<radialGradient id="paint13_radial" cx="0" cy="0" r="1" gradientUnits="userSpaceOnUse" gradientTransform="translate(45.5712 94.7287) rotate(-97.8652) scale(51.8378 73.7788)">
<stop stop-color="#002345"/>
<stop offset="1" stop-color="#002A53" stop-opacity="0"/>
</radialGradient>
<radialGradient id="paint14_radial" cx="0" cy="0" r="1" gradientUnits="userSpaceOnUse" gradientTransform="translate(-13.57 142.382) rotate(-80.2257) scale(42.1713 51.2674)">
<stop stop-color="#0038FF"/>
<stop offset="1" stop-color="#F2F2F2"/>
</radialGradient>
<radialGradient id="paint15_radial" cx="0" cy="0" r="1" gradientUnits="userSpaceOnUse" gradientTransform="translate(52.4304 129.883) rotate(-99.4094) scale(125.349 187.495)">
<stop stop-color="#FF7300"/>
<stop offset="0.478602" stop-color="#FF7300" stop-opacity="0"/>
</radialGradient>
<radialGradient id="paint16_radial" cx="0" cy="0" r="1" gradientUnits="userSpaceOnUse" gradientTransform="translate(-31.0421 85.9417) rotate(-4.60351) scale(68.7987 64.1222)">
<stop stop-color="#ED7448"/>
<stop offset="1" stop-color="#ED7448" stop-opacity="0"/>
</radialGradient>
<radialGradient id="paint17_radial" cx="0" cy="0" r="1" gradientUnits="userSpaceOnUse" gradientTransform="translate(111.898 -11.619) rotate(141.843) scale(49.9487 36.2771)">
<stop stop-color="#0466C7"/>
<stop offset="1" stop-color="#0866C4" stop-opacity="0"/>
</radialGradient>
<radialGradient id="paint18_radial" cx="0" cy="0" r="1" gradientUnits="userSpaceOnUse" gradientTransform="translate(73.1393 67.6756) rotate(-111.596) scale(82.5252 110.142)">
<stop stop-color="#0D3356"/>
<stop offset="1" stop-color="#0D3356" stop-opacity="0"/>
</radialGradient>
<radialGradient id="paint19_radial" cx="0" cy="0" r="1" gradientUnits="userSpaceOnUse" gradientTransform="translate(38.6563 30.1741) rotate(91.1865) scale(81.2269 109.725)">
<stop stop-color="#F5B3B0"/>
<stop offset="1" stop-color="#F5B3B0" stop-opacity="0"/>
</radialGradient>
<radialGradient id="paint20_radial" cx="0" cy="0" r="1" gradientUnits="userSpaceOnUse" gradientTransform="translate(47.9403 58.0271) rotate(-97.8652) scale(51.8378 73.7788)">
<stop stop-color="#002345"/>
<stop offset="1" stop-color="#002A53" stop-opacity="0"/>
</radialGradient>
<radialGradient id="paint21_radial" cx="0" cy="0" r="1" gradientUnits="userSpaceOnUse" gradientTransform="translate(-50.2204 42.5073) rotate(-42.9522) scale(42.2284 51.198)">
<stop stop-color="#0038FF"/>
<stop offset="1" stop-color="#F2F2F2"/>
</radialGradient>
<radialGradient id="paint22_radial" cx="0" cy="0" r="1" gradientUnits="userSpaceOnUse" gradientTransform="translate(9.9161 72.3725) rotate(-62.0987) scale(125.414 187.399)">
<stop stop-color="#FF7300"/>
<stop offset="0.478602" stop-color="#FF7300" stop-opacity="0"/>
</radialGradient>
<radialGradient id="paint23_radial" cx="0" cy="0" r="1" gradientUnits="userSpaceOnUse" gradientTransform="translate(-29.9002 -12.9767) rotate(32.5375) scale(68.7466 64.1708)">
<stop stop-color="#ED7448"/>
<stop offset="1" stop-color="#ED7448" stop-opacity="0"/>
</radialGradient>
<radialGradient id="paint24_radial" cx="0" cy="0" r="1" gradientUnits="userSpaceOnUse" gradientTransform="translate(143.095 -4.4276) rotate(178.994) scale(49.9997 36.2401)">
<stop stop-color="#0466C7"/>
<stop offset="1" stop-color="#0866C4" stop-opacity="0"/>
</radialGradient>
<radialGradient id="paint25_radial" cx="0" cy="0" r="1" gradientUnits="userSpaceOnUse" gradientTransform="translate(64.1374 35.3309) rotate(-74.2814) scale(82.5115 110.16)">
<stop stop-color="#0D3356"/>
<stop offset="1" stop-color="#0D3356" stop-opacity="0"/>
</radialGradient>
<radialGradient id="paint26_radial" cx="0" cy="0" r="1" gradientUnits="userSpaceOnUse" gradientTransform="translate(59.4249 -15.3348) rotate(128.481) scale(81.3108 109.612)">
<stop stop-color="#F5B3B0"/>
<stop offset="1" stop-color="#F5B3B0" stop-opacity="0"/>
</radialGradient>
<clipPath id="clip0">
<rect x="0.0839844" width="376" height="328" rx="20" fill="white"/>
</clipPath>
<clipPath id="clip1">
<rect width="333.293" height="471.651" fill="white" transform="translate(423.408 -2.84291) rotate(90)"/>
</clipPath>
</defs>
</svg>
