<svg width="377" height="328" viewBox="0 0 377 328" fill="none" xmlns="http://www.w3.org/2000/svg">
<g clip-path="url(#clip0)">
<g clip-path="url(#clip1)">
<rect width="352.412" height="498.707" transform="translate(437.084 -11.7059) rotate(90)" fill="white"/>
<rect x="437.084" y="-11.7059" width="352.412" height="498.707" transform="rotate(90 437.084 -11.7059)" fill="#571D6B"/>
<g filter="url(#filter0_f)">
<circle cx="528.592" cy="452.945" r="375.215" transform="rotate(90 528.592 452.945)" fill="#4742B0"/>
</g>
<g filter="url(#filter1_f)">
<circle cx="-97.1609" cy="19.0931" r="355.966" transform="rotate(90 -97.1609 19.0931)" fill="#FFB865"/>
</g>
<g filter="url(#filter2_f)">
<path d="M316.788 41.7965C311.949 -25.1304 274.281 -27.3809 250.837 -52.8434C222.706 -75.038 210.189 -94.8162 184.611 -76.9918C159.032 -59.1673 130.161 -54.2478 97.4527 -46.6547C64.7445 -39.0616 26.4928 -6.70565 10.4862 13.9485C-5.52032 34.6027 -42.4529 47.0396 -66.0573 97.6881C-89.6618 148.337 -61.5705 210.46 12.8691 276.384C87.3088 342.309 220.624 285.507 245.623 239.586C270.622 193.666 255.975 175.373 286.049 144.916C316.124 114.458 321.627 108.723 316.788 41.7965Z" fill="#F4D2D1"/>
<path d="M316.788 41.7965C311.949 -25.1304 274.281 -27.3809 250.837 -52.8434C222.706 -75.038 210.189 -94.8162 184.611 -76.9918C159.032 -59.1673 130.161 -54.2478 97.4527 -46.6547C64.7445 -39.0616 26.4928 -6.70565 10.4862 13.9485C-5.52032 34.6027 -42.4529 47.0396 -66.0573 97.6881C-89.6618 148.337 -61.5705 210.46 12.8691 276.384C87.3088 342.309 220.624 285.507 245.623 239.586C270.622 193.666 255.975 175.373 286.049 144.916C316.124 114.458 321.627 108.723 316.788 41.7965Z" fill="url(#paint0_radial)"/>
<path d="M316.788 41.7965C311.949 -25.1304 274.281 -27.3809 250.837 -52.8434C222.706 -75.038 210.189 -94.8162 184.611 -76.9918C159.032 -59.1673 130.161 -54.2478 97.4527 -46.6547C64.7445 -39.0616 26.4928 -6.70565 10.4862 13.9485C-5.52032 34.6027 -42.4529 47.0396 -66.0573 97.6881C-89.6618 148.337 -61.5705 210.46 12.8691 276.384C87.3088 342.309 220.624 285.507 245.623 239.586C270.622 193.666 255.975 175.373 286.049 144.916C316.124 114.458 321.627 108.723 316.788 41.7965Z" fill="url(#paint1_radial)"/>
<path d="M316.788 41.7965C311.949 -25.1304 274.281 -27.3809 250.837 -52.8434C222.706 -75.038 210.189 -94.8162 184.611 -76.9918C159.032 -59.1673 130.161 -54.2478 97.4527 -46.6547C64.7445 -39.0616 26.4928 -6.70565 10.4862 13.9485C-5.52032 34.6027 -42.4529 47.0396 -66.0573 97.6881C-89.6618 148.337 -61.5705 210.46 12.8691 276.384C87.3088 342.309 220.624 285.507 245.623 239.586C270.622 193.666 255.975 175.373 286.049 144.916C316.124 114.458 321.627 108.723 316.788 41.7965Z" fill="url(#paint2_radial)"/>
<path d="M316.788 41.7965C311.949 -25.1304 274.281 -27.3809 250.837 -52.8434C222.706 -75.038 210.189 -94.8162 184.611 -76.9918C159.032 -59.1673 130.161 -54.2478 97.4527 -46.6547C64.7445 -39.0616 26.4928 -6.70565 10.4862 13.9485C-5.52032 34.6027 -42.4529 47.0396 -66.0573 97.6881C-89.6618 148.337 -61.5705 210.46 12.8691 276.384C87.3088 342.309 220.624 285.507 245.623 239.586C270.622 193.666 255.975 175.373 286.049 144.916C316.124 114.458 321.627 108.723 316.788 41.7965Z" fill="url(#paint3_radial)"/>
</g>
</g>
<g opacity="0.5">
<rect x="0.0839844" width="392" height="344" fill="#C4C4C4"/>
<rect x="0.0839844" width="392" height="344" fill="url(#paint4_linear)"/>
</g>
<path d="M200.609 309.411C184.553 327.733 216.025 329.843 220.647 336.931C234.513 354.026 250.229 347.772 273.339 355.694C296.449 363.616 287.205 361.532 313.09 361.115C338.974 360.698 368.538 364.5 378.859 364.5C400.63 364.5 399.242 357.84 409.066 353.064C427.027 344.333 456.145 339.169 453.969 325.52C453.302 321.34 429.568 308.162 430.493 302.742C431.417 297.321 423.098 289.399 424.022 279.392C424.947 269.386 430.596 263.581 404.712 258.995C378.828 254.408 303.521 251.895 291.503 254.814C279.485 257.732 238.575 270.233 211.767 269.816C184.958 269.399 211.284 297.23 200.609 309.411Z" fill="url(#paint5_radial)"/>
<path d="M200.609 309.411C184.553 327.733 216.025 329.843 220.647 336.931C234.513 354.026 250.229 347.772 273.339 355.694C296.449 363.616 287.205 361.532 313.09 361.115C338.974 360.698 368.538 364.5 378.859 364.5C400.63 364.5 399.242 357.84 409.066 353.064C427.027 344.333 456.145 339.169 453.969 325.52C453.302 321.34 429.568 308.162 430.493 302.742C431.417 297.321 423.098 289.399 424.022 279.392C424.947 269.386 430.596 263.581 404.712 258.995C378.828 254.408 303.521 251.895 291.503 254.814C279.485 257.732 238.575 270.233 211.767 269.816C184.958 269.399 211.284 297.23 200.609 309.411Z" fill="url(#paint6_radial)"/>
<path d="M200.609 309.411C184.553 327.733 216.025 329.843 220.647 336.931C234.513 354.026 250.229 347.772 273.339 355.694C296.449 363.616 287.205 361.532 313.09 361.115C338.974 360.698 368.538 364.5 378.859 364.5C400.63 364.5 399.242 357.84 409.066 353.064C427.027 344.333 456.145 339.169 453.969 325.52C453.302 321.34 429.568 308.162 430.493 302.742C431.417 297.321 423.098 289.399 424.022 279.392C424.947 269.386 430.596 263.581 404.712 258.995C378.828 254.408 303.521 251.895 291.503 254.814C279.485 257.732 238.575 270.233 211.767 269.816C184.958 269.399 211.284 297.23 200.609 309.411Z" fill="url(#paint7_radial)"/>
<path d="M200.609 309.411C184.553 327.733 216.025 329.843 220.647 336.931C234.513 354.026 250.229 347.772 273.339 355.694C296.449 363.616 287.205 361.532 313.09 361.115C338.974 360.698 368.538 364.5 378.859 364.5C400.63 364.5 399.242 357.84 409.066 353.064C427.027 344.333 456.145 339.169 453.969 325.52C453.302 321.34 429.568 308.162 430.493 302.742C431.417 297.321 423.098 289.399 424.022 279.392C424.947 269.386 430.596 263.581 404.712 258.995C378.828 254.408 303.521 251.895 291.503 254.814C279.485 257.732 238.575 270.233 211.767 269.816C184.958 269.399 211.284 297.23 200.609 309.411Z" fill="url(#paint8_radial)"/>
<path d="M200.609 309.411C184.553 327.733 216.025 329.843 220.647 336.931C234.513 354.026 250.229 347.772 273.339 355.694C296.449 363.616 287.205 361.532 313.09 361.115C338.974 360.698 368.538 364.5 378.859 364.5C400.63 364.5 399.242 357.84 409.066 353.064C427.027 344.333 456.145 339.169 453.969 325.52C453.302 321.34 429.568 308.162 430.493 302.742C431.417 297.321 423.098 289.399 424.022 279.392C424.947 269.386 430.596 263.581 404.712 258.995C378.828 254.408 303.521 251.895 291.503 254.814C279.485 257.732 238.575 270.233 211.767 269.816C184.958 269.399 211.284 297.23 200.609 309.411Z" fill="url(#paint9_radial)"/>
<path d="M200.609 309.411C184.553 327.733 216.025 329.843 220.647 336.931C234.513 354.026 250.229 347.772 273.339 355.694C296.449 363.616 287.205 361.532 313.09 361.115C338.974 360.698 368.538 364.5 378.859 364.5C400.63 364.5 399.242 357.84 409.066 353.064C427.027 344.333 456.145 339.169 453.969 325.52C453.302 321.34 429.568 308.162 430.493 302.742C431.417 297.321 423.098 289.399 424.022 279.392C424.947 269.386 430.596 263.581 404.712 258.995C378.828 254.408 303.521 251.895 291.503 254.814C279.485 257.732 238.575 270.233 211.767 269.816C184.958 269.399 211.284 297.23 200.609 309.411Z" fill="url(#paint10_radial)"/>
<path d="M200.609 309.411C184.553 327.733 216.025 329.843 220.647 336.931C234.513 354.026 250.229 347.772 273.339 355.694C296.449 363.616 287.205 361.532 313.09 361.115C338.974 360.698 368.538 364.5 378.859 364.5C400.63 364.5 399.242 357.84 409.066 353.064C427.027 344.333 456.145 339.169 453.969 325.52C453.302 321.34 429.568 308.162 430.493 302.742C431.417 297.321 423.098 289.399 424.022 279.392C424.947 269.386 430.596 263.581 404.712 258.995C378.828 254.408 303.521 251.895 291.503 254.814C279.485 257.732 238.575 270.233 211.767 269.816C184.958 269.399 211.284 297.23 200.609 309.411Z" fill="url(#paint11_radial)"/>
<ellipse rx="65.3856" ry="65.3837" transform="matrix(0.721146 -0.692783 0.693308 0.720642 324.53 256.916)" fill="#FEC1BE"/>
<ellipse rx="65.3856" ry="65.3837" transform="matrix(0.721146 -0.692783 0.693308 0.720642 324.53 256.916)" fill="url(#paint12_radial)"/>
<ellipse rx="65.3856" ry="65.3837" transform="matrix(0.721146 -0.692783 0.693308 0.720642 324.53 256.916)" fill="url(#paint13_radial)"/>
<ellipse rx="65.3856" ry="65.3837" transform="matrix(0.721146 -0.692783 0.693308 0.720642 324.53 256.916)" fill="url(#paint14_radial)"/>
</g>
<defs>
<filter id="filter0_f" x="5.30475" y="-70.3425" width="1046.57" height="1046.57" filterUnits="userSpaceOnUse" color-interpolation-filters="sRGB">
<feFlood flood-opacity="0" result="BackgroundImageFix"/>
<feBlend mode="normal" in="SourceGraphic" in2="BackgroundImageFix" result="shape"/>
<feGaussianBlur stdDeviation="74.0361" result="effect1_foregroundBlur"/>
</filter>
<filter id="filter1_f" x="-601.199" y="-484.945" width="1008.08" height="1008.08" filterUnits="userSpaceOnUse" color-interpolation-filters="sRGB">
<feFlood flood-opacity="0" result="BackgroundImageFix"/>
<feBlend mode="normal" in="SourceGraphic" in2="BackgroundImageFix" result="shape"/>
<feGaussianBlur stdDeviation="74.0361" result="effect1_foregroundBlur"/>
</filter>
<filter id="filter2_f" x="-83.0894" y="-92.783" width="410.312" height="408.026" filterUnits="userSpaceOnUse" color-interpolation-filters="sRGB">
<feFlood flood-opacity="0" result="BackgroundImageFix"/>
<feBlend mode="normal" in="SourceGraphic" in2="BackgroundImageFix" result="shape"/>
<feGaussianBlur stdDeviation="4.44217" result="effect1_foregroundBlur"/>
</filter>
<radialGradient id="paint0_radial" cx="0" cy="0" r="1" gradientUnits="userSpaceOnUse" gradientTransform="translate(307.388 121.114) rotate(167.195) scale(428.89 349.218)">
<stop stop-color="#1F5EFF"/>
<stop offset="1" stop-color="white" stop-opacity="0"/>
</radialGradient>
<radialGradient id="paint1_radial" cx="0" cy="0" r="1" gradientUnits="userSpaceOnUse" gradientTransform="translate(-62.0089 129.507) rotate(6.45717) scale(400.861 326.397)">
<stop stop-color="#FE790B"/>
<stop offset="1" stop-color="white" stop-opacity="0"/>
</radialGradient>
<radialGradient id="paint2_radial" cx="0" cy="0" r="1" gradientUnits="userSpaceOnUse" gradientTransform="translate(198.194 -64.3922) rotate(104.959) scale(319.159 259.871)">
<stop stop-color="#FF3D00"/>
<stop offset="1" stop-color="#FF3D00" stop-opacity="0"/>
</radialGradient>
<radialGradient id="paint3_radial" cx="0" cy="0" r="1" gradientUnits="userSpaceOnUse" gradientTransform="translate(-44.3186 190.319) rotate(-34.5377) scale(193.479 157.538)">
<stop stop-color="#3338B3"/>
<stop offset="1" stop-color="#121788" stop-opacity="0"/>
</radialGradient>
<linearGradient id="paint4_linear" x1="-34.1448" y1="-48.8398" x2="359.081" y2="317.133" gradientUnits="userSpaceOnUse">
<stop stop-color="#5952BD"/>
<stop offset="0.484375" stop-color="#8E4D63"/>
<stop offset="1" stop-color="#FFAE50"/>
</linearGradient>
<radialGradient id="paint5_radial" cx="0" cy="0" r="1" gradientUnits="userSpaceOnUse" gradientTransform="translate(241.98 346.662) rotate(-60.617) scale(30.1458 58.7988)">
<stop stop-color="#0038FF"/>
<stop offset="1" stop-color="#F2F2F2"/>
</radialGradient>
<radialGradient id="paint6_radial" cx="0" cy="0" r="1" gradientUnits="userSpaceOnUse" gradientTransform="translate(319.633 355.834) rotate(-92.5058) scale(89.4244 215.474)">
<stop stop-color="#FF7300"/>
<stop offset="0.478602" stop-color="#FF7300" stop-opacity="0"/>
</radialGradient>
<radialGradient id="paint7_radial" cx="0" cy="0" r="1" gradientUnits="userSpaceOnUse" gradientTransform="translate(230.887 303.716) rotate(10.4014) scale(80.8295 44.7463)">
<stop stop-color="#ED7448"/>
<stop offset="1" stop-color="#ED7448" stop-opacity="0"/>
</radialGradient>
<radialGradient id="paint8_radial" cx="0" cy="0" r="1" gradientUnits="userSpaceOnUse" gradientTransform="translate(410.227 275.78) rotate(168.205) scale(50.996 29.1312)">
<stop stop-color="#0466C7"/>
<stop offset="1" stop-color="#0866C4" stop-opacity="0"/>
</radialGradient>
<radialGradient id="paint9_radial" cx="0" cy="0" r="1" gradientUnits="userSpaceOnUse" gradientTransform="translate(353.229 319.188) rotate(-110.651) scale(64.287 115.919)">
<stop stop-color="#0D3356"/>
<stop offset="1" stop-color="#0D3356" stop-opacity="0"/>
</radialGradient>
<radialGradient id="paint10_radial" cx="0" cy="0" r="1" gradientUnits="userSpaceOnUse" gradientTransform="translate(319.633 284.536) rotate(105.152) scale(56.5877 129.128)">
<stop stop-color="#F5B3B0"/>
<stop offset="1" stop-color="#F5B3B0" stop-opacity="0"/>
</radialGradient>
<radialGradient id="paint11_radial" cx="0" cy="0" r="1" gradientUnits="userSpaceOnUse" gradientTransform="translate(325.866 305.906) rotate(-90) scale(36.7187 85.3944)">
<stop stop-color="#002345"/>
<stop offset="1" stop-color="#002A53" stop-opacity="0"/>
</radialGradient>
<radialGradient id="paint12_radial" cx="0" cy="0" r="1" gradientUnits="userSpaceOnUse" gradientTransform="translate(28.7937 101.975) rotate(-49.6347) scale(47.2367 76.3749)">
<stop stop-color="#1A2F7A"/>
<stop offset="1" stop-color="#1A2F7A" stop-opacity="0"/>
</radialGradient>
<radialGradient id="paint13_radial" cx="0" cy="0" r="1" gradientUnits="userSpaceOnUse" gradientTransform="translate(96.5787 65.9836) scale(71.3843 94.6357)">
<stop stop-color="#FFB865"/>
<stop offset="1" stop-color="#FF8A00" stop-opacity="0"/>
</radialGradient>
<radialGradient id="paint14_radial" cx="0" cy="0" r="1" gradientUnits="userSpaceOnUse" gradientTransform="translate(46.1898 8.99777) rotate(62.5249) scale(84.5135 150.789)">
<stop stop-color="#FF6161"/>
<stop offset="1" stop-color="#FF6161" stop-opacity="0"/>
</radialGradient>
<clipPath id="clip0">
<rect x="0.0839844" width="376" height="328" rx="20" fill="white"/>
</clipPath>
<clipPath id="clip1">
<rect width="352.412" height="498.707" fill="white" transform="translate(437.084 -11.7059) rotate(90)"/>
</clipPath>
</defs>
</svg>
