<svg width="56" height="56" viewBox="0 0 56 56" fill="none" xmlns="http://www.w3.org/2000/svg">
<circle cx="27.9998" cy="28" r="28" fill="#6C5AA4"/>
<circle cx="27.9998" cy="28" r="28" fill="url(#paint0_radial)"/>
<circle cx="27.9998" cy="28" r="28" fill="url(#paint1_radial)"/>
<path d="M36.7212 25.0428C38.4432 26.2358 38.4432 28.7817 36.7212 29.9748L26.568 37.0091C24.5783 38.3876 21.8595 36.9636 21.8595 34.5431L21.8595 20.4744C21.8595 18.0539 24.5783 16.63 26.568 18.0084L36.7212 25.0428Z" fill="white"/>
<defs>
<radialGradient id="paint0_radial" cx="0" cy="0" r="1" gradientUnits="userSpaceOnUse" gradientTransform="translate(51.0875 17.6842) rotate(109.767) scale(33.4071)">
<stop stop-color="#FBAC52"/>
<stop offset="1" stop-color="#FDAD52" stop-opacity="0"/>
</radialGradient>
<radialGradient id="paint1_radial" cx="0" cy="0" r="1" gradientUnits="userSpaceOnUse" gradientTransform="translate(1.96467 31.4386) rotate(26.5651) scale(29.6573)">
<stop stop-color="#3A4BCF"/>
<stop offset="1" stop-color="#3C4FD3" stop-opacity="0"/>
</radialGradient>
</defs>
</svg>
