<svg width="17" height="16" viewBox="0 0 17 16" fill="none" xmlns="http://www.w3.org/2000/svg">
<g clip-path="url(#clip0)">
<path d="M16.1309 8.46875C16.1309 7.48841 15.6192 6.60778 14.8028 6.09344C15.0366 5.6765 15.1621 5.20416 15.1621 4.71875C15.1621 3.16794 13.9004 1.90625 12.3496 1.90625C12.3342 1.90625 12.3188 1.90656 12.3034 1.90684C12.0923 0.849156 11.1595 0 10.0059 0C9.25273 0 8.57242 0.362281 8.13086 0.957187C7.68933 0.362344 7.00908 0 6.25586 0C5.09927 0 4.1683 0.8525 3.95814 1.90775C3.0018 1.89478 2.09748 2.36037 1.56202 3.17319C1.0198 3.99638 0.924047 5.06994 1.4388 6.106C0.641641 6.61756 0.130859 7.48784 0.130859 8.46875C0.130859 9.32859 0.531766 10.1157 1.17217 10.6377C0.974453 11.5278 1.19173 12.4336 1.78186 13.1176C2.32573 13.7481 3.09417 14.0939 3.90952 14.0939C3.92573 14.0939 3.94205 14.0931 3.9583 14.0928C4.16911 15.1502 5.1017 16 6.25586 16C7.00898 16 7.6893 15.6377 8.13086 15.0428C8.57239 15.6377 9.25264 16 10.0059 16C11.1601 16 12.0926 15.1501 12.3035 14.0928C12.3197 14.0931 12.336 14.0939 12.3522 14.0939C13.1675 14.0939 13.9361 13.748 14.4799 13.1176C15.07 12.4336 15.2873 11.5278 15.0896 10.6377C15.73 10.1157 16.1309 9.32859 16.1309 8.46875ZM7.66211 9.37219C6.89692 9.26128 6.19167 8.88203 5.67614 8.30181C6.03952 7.82794 6.25586 7.23569 6.25586 6.59375C6.25586 6.33488 6.04598 6.125 5.78711 6.125C5.52823 6.125 5.31836 6.33488 5.31836 6.59375C5.31836 7.62762 4.47723 8.46875 3.44336 8.46875C3.18448 8.46875 2.97461 8.67863 2.97461 8.9375C2.97461 9.19637 3.18448 9.40625 3.44336 9.40625C4.01442 9.40625 4.54617 9.235 4.99027 8.94141C5.68164 9.71106 6.63448 10.2018 7.66211 10.3171V13.625C7.66211 14.4042 7.01814 15.0625 6.25586 15.0625C5.49358 15.0625 4.84961 14.4042 4.84961 13.625C4.84961 12.8496 5.48045 12.2188 6.25586 12.2188C6.51473 12.2188 6.72461 12.0089 6.72461 11.75C6.72461 11.4911 6.51473 11.2812 6.25586 11.2812C5.12433 11.2812 4.17758 12.0872 3.95945 13.1553C3.39642 13.1685 2.8643 12.9372 2.4917 12.5052C2.15477 12.1147 2.00105 11.6297 2.04314 11.1237C2.15202 11.1615 2.40042 11.2363 2.51533 11.2363C2.73442 11.2363 2.9302 11.0819 2.97458 10.8589C3.02508 10.605 2.8602 10.3582 2.6063 10.3077C1.72395 10.1322 1.06836 9.36444 1.06836 8.46875C1.06836 7.43488 1.92348 6.59375 2.97461 6.59375C3.23348 6.59375 3.44336 6.38387 3.44336 6.125C3.44336 5.86613 3.23348 5.65625 2.97461 5.65625C2.74561 5.65625 2.52052 5.68366 2.3028 5.73628C1.93848 5.03706 1.94889 4.29006 2.34489 3.68897C2.70427 3.14341 3.31436 2.83269 3.95958 2.84562C4.17808 3.91319 5.12464 4.71875 6.25586 4.71875C6.51473 4.71875 6.72461 4.50887 6.72461 4.25C6.72461 3.99113 6.51473 3.78125 6.25586 3.78125C5.48045 3.78125 4.84961 3.15041 4.84961 2.375C4.84961 1.59578 5.49358 0.9375 6.25586 0.9375C7.01814 0.9375 7.66211 1.59578 7.66211 2.375V9.37219ZM13.6554 10.3077C13.4015 10.3582 13.2366 10.605 13.2871 10.8589C13.3376 11.1125 13.584 11.2777 13.8384 11.2272C13.9689 11.2012 14.0957 11.1663 14.2186 11.1237C14.2607 11.6297 14.107 12.1147 13.77 12.5052C13.3975 12.9371 12.8652 13.1685 12.3023 13.1552C12.0841 12.0872 11.1374 11.2812 10.0059 11.2812C9.74698 11.2812 9.53711 11.4911 9.53711 11.75C9.53711 12.0089 9.74698 12.2188 10.0059 12.2188C10.7813 12.2188 11.4121 12.8496 11.4121 13.625C11.4121 14.4042 10.7681 15.0625 10.0059 15.0625C9.24358 15.0625 8.59961 14.4042 8.59961 13.625V10.3171C9.62723 10.2017 10.5801 9.71103 11.2715 8.94137C11.7155 9.235 12.2473 9.40625 12.8184 9.40625C13.0772 9.40625 13.2871 9.19637 13.2871 8.9375C13.2871 8.67863 13.0772 8.46875 12.8184 8.46875C11.7845 8.46875 10.9434 7.62762 10.9434 6.59375C10.9434 6.33488 10.7335 6.125 10.4746 6.125C10.2157 6.125 10.0059 6.33488 10.0059 6.59375C10.0059 7.23569 10.2222 7.82794 10.5856 8.30181C10.0701 8.882 9.3648 9.26128 8.59961 9.37219V2.375C8.59961 1.59578 9.24358 0.9375 10.0059 0.9375C10.7681 0.9375 11.4121 1.59578 11.4121 2.375C11.4121 3.15041 10.7813 3.78125 10.0059 3.78125C9.74698 3.78125 9.53711 3.99113 9.53711 4.25C9.53711 4.50887 9.74698 4.71875 10.0059 4.71875C11.1373 4.71875 12.084 3.91284 12.3022 2.84494C12.318 2.84453 12.3338 2.84375 12.3496 2.84375C13.3835 2.84375 14.2246 3.68488 14.2246 4.71875C14.2246 5.07959 14.1206 5.42959 13.9285 5.7295C13.7202 5.68159 13.5055 5.65625 13.2871 5.65625C13.0282 5.65625 12.8184 5.86613 12.8184 6.125C12.8184 6.38387 13.0282 6.59375 13.2871 6.59375C14.3276 6.59375 15.1934 7.42631 15.1934 8.46875C15.1934 9.36578 14.5364 10.1325 13.6554 10.3077Z" fill="#6C5AA4"/>
<path d="M16.1309 8.46875C16.1309 7.48841 15.6192 6.60778 14.8028 6.09344C15.0366 5.6765 15.1621 5.20416 15.1621 4.71875C15.1621 3.16794 13.9004 1.90625 12.3496 1.90625C12.3342 1.90625 12.3188 1.90656 12.3034 1.90684C12.0923 0.849156 11.1595 0 10.0059 0C9.25273 0 8.57242 0.362281 8.13086 0.957187C7.68933 0.362344 7.00908 0 6.25586 0C5.09927 0 4.1683 0.8525 3.95814 1.90775C3.0018 1.89478 2.09748 2.36037 1.56202 3.17319C1.0198 3.99638 0.924047 5.06994 1.4388 6.106C0.641641 6.61756 0.130859 7.48784 0.130859 8.46875C0.130859 9.32859 0.531766 10.1157 1.17217 10.6377C0.974453 11.5278 1.19173 12.4336 1.78186 13.1176C2.32573 13.7481 3.09417 14.0939 3.90952 14.0939C3.92573 14.0939 3.94205 14.0931 3.9583 14.0928C4.16911 15.1502 5.1017 16 6.25586 16C7.00898 16 7.6893 15.6377 8.13086 15.0428C8.57239 15.6377 9.25264 16 10.0059 16C11.1601 16 12.0926 15.1501 12.3035 14.0928C12.3197 14.0931 12.336 14.0939 12.3522 14.0939C13.1675 14.0939 13.9361 13.748 14.4799 13.1176C15.07 12.4336 15.2873 11.5278 15.0896 10.6377C15.73 10.1157 16.1309 9.32859 16.1309 8.46875ZM7.66211 9.37219C6.89692 9.26128 6.19167 8.88203 5.67614 8.30181C6.03952 7.82794 6.25586 7.23569 6.25586 6.59375C6.25586 6.33488 6.04598 6.125 5.78711 6.125C5.52823 6.125 5.31836 6.33488 5.31836 6.59375C5.31836 7.62762 4.47723 8.46875 3.44336 8.46875C3.18448 8.46875 2.97461 8.67863 2.97461 8.9375C2.97461 9.19637 3.18448 9.40625 3.44336 9.40625C4.01442 9.40625 4.54617 9.235 4.99027 8.94141C5.68164 9.71106 6.63448 10.2018 7.66211 10.3171V13.625C7.66211 14.4042 7.01814 15.0625 6.25586 15.0625C5.49358 15.0625 4.84961 14.4042 4.84961 13.625C4.84961 12.8496 5.48045 12.2188 6.25586 12.2188C6.51473 12.2188 6.72461 12.0089 6.72461 11.75C6.72461 11.4911 6.51473 11.2812 6.25586 11.2812C5.12433 11.2812 4.17758 12.0872 3.95945 13.1553C3.39642 13.1685 2.8643 12.9372 2.4917 12.5052C2.15477 12.1147 2.00105 11.6297 2.04314 11.1237C2.15202 11.1615 2.40042 11.2363 2.51533 11.2363C2.73442 11.2363 2.9302 11.0819 2.97458 10.8589C3.02508 10.605 2.8602 10.3582 2.6063 10.3077C1.72395 10.1322 1.06836 9.36444 1.06836 8.46875C1.06836 7.43488 1.92348 6.59375 2.97461 6.59375C3.23348 6.59375 3.44336 6.38387 3.44336 6.125C3.44336 5.86613 3.23348 5.65625 2.97461 5.65625C2.74561 5.65625 2.52052 5.68366 2.3028 5.73628C1.93848 5.03706 1.94889 4.29006 2.34489 3.68897C2.70427 3.14341 3.31436 2.83269 3.95958 2.84562C4.17808 3.91319 5.12464 4.71875 6.25586 4.71875C6.51473 4.71875 6.72461 4.50887 6.72461 4.25C6.72461 3.99113 6.51473 3.78125 6.25586 3.78125C5.48045 3.78125 4.84961 3.15041 4.84961 2.375C4.84961 1.59578 5.49358 0.9375 6.25586 0.9375C7.01814 0.9375 7.66211 1.59578 7.66211 2.375V9.37219ZM13.6554 10.3077C13.4015 10.3582 13.2366 10.605 13.2871 10.8589C13.3376 11.1125 13.584 11.2777 13.8384 11.2272C13.9689 11.2012 14.0957 11.1663 14.2186 11.1237C14.2607 11.6297 14.107 12.1147 13.77 12.5052C13.3975 12.9371 12.8652 13.1685 12.3023 13.1552C12.0841 12.0872 11.1374 11.2812 10.0059 11.2812C9.74698 11.2812 9.53711 11.4911 9.53711 11.75C9.53711 12.0089 9.74698 12.2188 10.0059 12.2188C10.7813 12.2188 11.4121 12.8496 11.4121 13.625C11.4121 14.4042 10.7681 15.0625 10.0059 15.0625C9.24358 15.0625 8.59961 14.4042 8.59961 13.625V10.3171C9.62723 10.2017 10.5801 9.71103 11.2715 8.94137C11.7155 9.235 12.2473 9.40625 12.8184 9.40625C13.0772 9.40625 13.2871 9.19637 13.2871 8.9375C13.2871 8.67863 13.0772 8.46875 12.8184 8.46875C11.7845 8.46875 10.9434 7.62762 10.9434 6.59375C10.9434 6.33488 10.7335 6.125 10.4746 6.125C10.2157 6.125 10.0059 6.33488 10.0059 6.59375C10.0059 7.23569 10.2222 7.82794 10.5856 8.30181C10.0701 8.882 9.3648 9.26128 8.59961 9.37219V2.375C8.59961 1.59578 9.24358 0.9375 10.0059 0.9375C10.7681 0.9375 11.4121 1.59578 11.4121 2.375C11.4121 3.15041 10.7813 3.78125 10.0059 3.78125C9.74698 3.78125 9.53711 3.99113 9.53711 4.25C9.53711 4.50887 9.74698 4.71875 10.0059 4.71875C11.1373 4.71875 12.084 3.91284 12.3022 2.84494C12.318 2.84453 12.3338 2.84375 12.3496 2.84375C13.3835 2.84375 14.2246 3.68488 14.2246 4.71875C14.2246 5.07959 14.1206 5.42959 13.9285 5.7295C13.7202 5.68159 13.5055 5.65625 13.2871 5.65625C13.0282 5.65625 12.8184 5.86613 12.8184 6.125C12.8184 6.38387 13.0282 6.59375 13.2871 6.59375C14.3276 6.59375 15.1934 7.42631 15.1934 8.46875C15.1934 9.36578 14.5364 10.1325 13.6554 10.3077Z" fill="url(#paint0_radial)"/>
<path d="M16.1309 8.46875C16.1309 7.48841 15.6192 6.60778 14.8028 6.09344C15.0366 5.6765 15.1621 5.20416 15.1621 4.71875C15.1621 3.16794 13.9004 1.90625 12.3496 1.90625C12.3342 1.90625 12.3188 1.90656 12.3034 1.90684C12.0923 0.849156 11.1595 0 10.0059 0C9.25273 0 8.57242 0.362281 8.13086 0.957187C7.68933 0.362344 7.00908 0 6.25586 0C5.09927 0 4.1683 0.8525 3.95814 1.90775C3.0018 1.89478 2.09748 2.36037 1.56202 3.17319C1.0198 3.99638 0.924047 5.06994 1.4388 6.106C0.641641 6.61756 0.130859 7.48784 0.130859 8.46875C0.130859 9.32859 0.531766 10.1157 1.17217 10.6377C0.974453 11.5278 1.19173 12.4336 1.78186 13.1176C2.32573 13.7481 3.09417 14.0939 3.90952 14.0939C3.92573 14.0939 3.94205 14.0931 3.9583 14.0928C4.16911 15.1502 5.1017 16 6.25586 16C7.00898 16 7.6893 15.6377 8.13086 15.0428C8.57239 15.6377 9.25264 16 10.0059 16C11.1601 16 12.0926 15.1501 12.3035 14.0928C12.3197 14.0931 12.336 14.0939 12.3522 14.0939C13.1675 14.0939 13.9361 13.748 14.4799 13.1176C15.07 12.4336 15.2873 11.5278 15.0896 10.6377C15.73 10.1157 16.1309 9.32859 16.1309 8.46875ZM7.66211 9.37219C6.89692 9.26128 6.19167 8.88203 5.67614 8.30181C6.03952 7.82794 6.25586 7.23569 6.25586 6.59375C6.25586 6.33488 6.04598 6.125 5.78711 6.125C5.52823 6.125 5.31836 6.33488 5.31836 6.59375C5.31836 7.62762 4.47723 8.46875 3.44336 8.46875C3.18448 8.46875 2.97461 8.67863 2.97461 8.9375C2.97461 9.19637 3.18448 9.40625 3.44336 9.40625C4.01442 9.40625 4.54617 9.235 4.99027 8.94141C5.68164 9.71106 6.63448 10.2018 7.66211 10.3171V13.625C7.66211 14.4042 7.01814 15.0625 6.25586 15.0625C5.49358 15.0625 4.84961 14.4042 4.84961 13.625C4.84961 12.8496 5.48045 12.2188 6.25586 12.2188C6.51473 12.2188 6.72461 12.0089 6.72461 11.75C6.72461 11.4911 6.51473 11.2812 6.25586 11.2812C5.12433 11.2812 4.17758 12.0872 3.95945 13.1553C3.39642 13.1685 2.8643 12.9372 2.4917 12.5052C2.15477 12.1147 2.00105 11.6297 2.04314 11.1237C2.15202 11.1615 2.40042 11.2363 2.51533 11.2363C2.73442 11.2363 2.9302 11.0819 2.97458 10.8589C3.02508 10.605 2.8602 10.3582 2.6063 10.3077C1.72395 10.1322 1.06836 9.36444 1.06836 8.46875C1.06836 7.43488 1.92348 6.59375 2.97461 6.59375C3.23348 6.59375 3.44336 6.38387 3.44336 6.125C3.44336 5.86613 3.23348 5.65625 2.97461 5.65625C2.74561 5.65625 2.52052 5.68366 2.3028 5.73628C1.93848 5.03706 1.94889 4.29006 2.34489 3.68897C2.70427 3.14341 3.31436 2.83269 3.95958 2.84562C4.17808 3.91319 5.12464 4.71875 6.25586 4.71875C6.51473 4.71875 6.72461 4.50887 6.72461 4.25C6.72461 3.99113 6.51473 3.78125 6.25586 3.78125C5.48045 3.78125 4.84961 3.15041 4.84961 2.375C4.84961 1.59578 5.49358 0.9375 6.25586 0.9375C7.01814 0.9375 7.66211 1.59578 7.66211 2.375V9.37219ZM13.6554 10.3077C13.4015 10.3582 13.2366 10.605 13.2871 10.8589C13.3376 11.1125 13.584 11.2777 13.8384 11.2272C13.9689 11.2012 14.0957 11.1663 14.2186 11.1237C14.2607 11.6297 14.107 12.1147 13.77 12.5052C13.3975 12.9371 12.8652 13.1685 12.3023 13.1552C12.0841 12.0872 11.1374 11.2812 10.0059 11.2812C9.74698 11.2812 9.53711 11.4911 9.53711 11.75C9.53711 12.0089 9.74698 12.2188 10.0059 12.2188C10.7813 12.2188 11.4121 12.8496 11.4121 13.625C11.4121 14.4042 10.7681 15.0625 10.0059 15.0625C9.24358 15.0625 8.59961 14.4042 8.59961 13.625V10.3171C9.62723 10.2017 10.5801 9.71103 11.2715 8.94137C11.7155 9.235 12.2473 9.40625 12.8184 9.40625C13.0772 9.40625 13.2871 9.19637 13.2871 8.9375C13.2871 8.67863 13.0772 8.46875 12.8184 8.46875C11.7845 8.46875 10.9434 7.62762 10.9434 6.59375C10.9434 6.33488 10.7335 6.125 10.4746 6.125C10.2157 6.125 10.0059 6.33488 10.0059 6.59375C10.0059 7.23569 10.2222 7.82794 10.5856 8.30181C10.0701 8.882 9.3648 9.26128 8.59961 9.37219V2.375C8.59961 1.59578 9.24358 0.9375 10.0059 0.9375C10.7681 0.9375 11.4121 1.59578 11.4121 2.375C11.4121 3.15041 10.7813 3.78125 10.0059 3.78125C9.74698 3.78125 9.53711 3.99113 9.53711 4.25C9.53711 4.50887 9.74698 4.71875 10.0059 4.71875C11.1373 4.71875 12.084 3.91284 12.3022 2.84494C12.318 2.84453 12.3338 2.84375 12.3496 2.84375C13.3835 2.84375 14.2246 3.68488 14.2246 4.71875C14.2246 5.07959 14.1206 5.42959 13.9285 5.7295C13.7202 5.68159 13.5055 5.65625 13.2871 5.65625C13.0282 5.65625 12.8184 5.86613 12.8184 6.125C12.8184 6.38387 13.0282 6.59375 13.2871 6.59375C14.3276 6.59375 15.1934 7.42631 15.1934 8.46875C15.1934 9.36578 14.5364 10.1325 13.6554 10.3077Z" fill="url(#paint1_radial)"/>
</g>
<defs>
<radialGradient id="paint0_radial" cx="0" cy="0" r="1" gradientUnits="userSpaceOnUse" gradientTransform="translate(14.7274 5.05263) rotate(109.767) scale(9.54489)">
<stop stop-color="#FBAC52"/>
<stop offset="1" stop-color="#FDAD52" stop-opacity="0"/>
</radialGradient>
<radialGradient id="paint1_radial" cx="0" cy="0" r="1" gradientUnits="userSpaceOnUse" gradientTransform="translate(0.692263 8.98246) rotate(26.5651) scale(8.47352)">
<stop stop-color="#FFAE50"/>
<stop offset="1" stop-color="#FF7300"/>
</radialGradient>
<clipPath id="clip0">
<rect width="16" height="16" fill="white" transform="translate(0.130859)"/>
</clipPath>
</defs>
</svg>
