<svg width="22" height="20" viewBox="0 0 22 20" fill="none" xmlns="http://www.w3.org/2000/svg">
<path d="M9.77792 1.50315C10.3771 0.683612 11.6004 0.683611 12.1996 1.50315L14.5787 4.75686C14.8872 5.17886 15.3203 5.49352 15.817 5.65657L19.6466 6.91372C20.6112 7.23037 20.9892 8.39375 20.395 9.2169L18.0357 12.485C17.7297 12.9088 17.5643 13.4179 17.5627 13.9407L17.5505 17.9714C17.5474 18.9866 16.5578 19.7056 15.5913 19.3948L11.7541 18.1609C11.2564 18.0009 10.7211 18.0009 10.2234 18.1609L6.38626 19.3948C5.41976 19.7056 4.43014 18.9866 4.42706 17.9714L4.41485 13.9407C4.41327 13.4179 4.24785 12.9088 3.94185 12.485L1.58255 9.2169C0.9883 8.39375 1.3663 7.23037 2.3309 6.91372L6.16053 5.65657C6.65723 5.49352 7.09031 5.17886 7.39887 4.75686L9.77792 1.50315Z" stroke="#5D55B8"/>
</svg>
