<svg width="22" height="20" viewBox="0 0 22 20" fill="none" xmlns="http://www.w3.org/2000/svg">
<path d="M9.3743 1.20803C10.1733 0.115317 11.8043 0.115317 12.6032 1.20803L14.9823 4.46174C15.2291 4.79934 15.5756 5.05107 15.973 5.18151L19.8026 6.43867C21.0887 6.86086 21.5927 8.41203 20.8004 9.50956L18.4411 12.7776C18.1963 13.1167 18.0639 13.524 18.0627 13.9422L18.0505 17.9729C18.0464 19.3266 16.7269 20.2852 15.4382 19.8708L11.601 18.6369C11.2029 18.5089 10.7746 18.5089 10.3765 18.6369L6.53933 19.8708C5.25066 20.2852 3.93116 19.3266 3.92706 17.9729L3.91486 13.9422C3.91359 13.524 3.78125 13.1167 3.53645 12.7776L1.17716 9.50956C0.384819 8.41203 0.888824 6.86086 2.17495 6.43867L6.00458 5.18151C6.40194 5.05107 6.74841 4.79934 6.99526 4.46174L9.3743 1.20803Z" fill="#6C5AA4"/>
<path d="M9.3743 1.20803C10.1733 0.115317 11.8043 0.115317 12.6032 1.20803L14.9823 4.46174C15.2291 4.79934 15.5756 5.05107 15.973 5.18151L19.8026 6.43867C21.0887 6.86086 21.5927 8.41203 20.8004 9.50956L18.4411 12.7776C18.1963 13.1167 18.0639 13.524 18.0627 13.9422L18.0505 17.9729C18.0464 19.3266 16.7269 20.2852 15.4382 19.8708L11.601 18.6369C11.2029 18.5089 10.7746 18.5089 10.3765 18.6369L6.53933 19.8708C5.25066 20.2852 3.93116 19.3266 3.92706 17.9729L3.91486 13.9422C3.91359 13.524 3.78125 13.1167 3.53645 12.7776L1.17716 9.50956C0.384819 8.41203 0.888824 6.86086 2.17495 6.43867L6.00458 5.18151C6.40194 5.05107 6.74841 4.79934 6.99526 4.46174L9.3743 1.20803Z" fill="url(#paint0_radial)"/>
<path d="M9.3743 1.20803C10.1733 0.115317 11.8043 0.115317 12.6032 1.20803L14.9823 4.46174C15.2291 4.79934 15.5756 5.05107 15.973 5.18151L19.8026 6.43867C21.0887 6.86086 21.5927 8.41203 20.8004 9.50956L18.4411 12.7776C18.1963 13.1167 18.0639 13.524 18.0627 13.9422L18.0505 17.9729C18.0464 19.3266 16.7269 20.2852 15.4382 19.8708L11.601 18.6369C11.2029 18.5089 10.7746 18.5089 10.3765 18.6369L6.53933 19.8708C5.25066 20.2852 3.93116 19.3266 3.92706 17.9729L3.91486 13.9422C3.91359 13.524 3.78125 13.1167 3.53645 12.7776L1.17716 9.50956C0.384819 8.41203 0.888824 6.86086 2.17495 6.43867L6.00458 5.18151C6.40194 5.05107 6.74841 4.79934 6.99526 4.46174L9.3743 1.20803Z" fill="url(#paint1_radial)"/>
<defs>
<radialGradient id="paint0_radial" cx="0" cy="0" r="1" gradientUnits="userSpaceOnUse" gradientTransform="translate(20.8835 6.57895) rotate(109.767) scale(14.3173)">
<stop stop-color="#FBAC52"/>
<stop offset="1" stop-color="#FDAD52" stop-opacity="0"/>
</radialGradient>
<radialGradient id="paint1_radial" cx="0" cy="0" r="1" gradientUnits="userSpaceOnUse" gradientTransform="translate(-0.169125 12.4737) rotate(26.5651) scale(12.7103)">
<stop stop-color="#FFAE50"/>
<stop offset="1" stop-color="#FF7300"/>
</radialGradient>
</defs>
</svg>
