<svg width="1440" height="2229" viewBox="0 0 1440 2229" fill="none" xmlns="http://www.w3.org/2000/svg">
<g clip-path="url(#clip0)">
<rect width="1440" height="2229" fill="url(#paint0_linear)"/>
<g filter="url(#filter0_f)">
<circle cx="142.412" cy="344.022" r="583.978" transform="rotate(-90 142.412 344.022)" fill="#9792FF"/>
</g>
<g filter="url(#filter1_f)">
<ellipse cx="1228.37" cy="59.3557" rx="620.644" ry="620.368" transform="rotate(-90 1228.37 59.3557)" fill="#FFAE50"/>
</g>
<g filter="url(#filter2_f)">
<path d="M1089.33 402.136C926.982 337.788 908.283 463.918 845.476 482.442C694 538.016 749.418 600.999 679.222 693.619C609.026 786.239 627.498 749.192 631.193 852.929C634.888 956.666 601.195 1075.15 601.195 1116.52C601.195 1203.77 660.213 1198.21 702.527 1237.58C779.888 1309.56 825.651 1426.26 946.595 1417.54C983.63 1414.87 1100.4 1319.75 1148.43 1323.45C1196.46 1327.16 1266.65 1293.81 1355.32 1297.52C1443.99 1301.22 1495.42 1323.87 1536.06 1220.13C1576.7 1116.39 1598.97 814.579 1573.11 766.415C1547.25 718.252 1436.48 554.295 1440.18 446.853C1443.87 339.411 1197.27 444.917 1089.33 402.136Z" fill="url(#paint1_radial)"/>
<path d="M1089.33 402.136C926.982 337.788 908.283 463.918 845.476 482.442C694 538.016 749.418 600.999 679.222 693.619C609.026 786.239 627.498 749.192 631.193 852.929C634.888 956.666 601.195 1075.15 601.195 1116.52C601.195 1203.77 660.213 1198.21 702.527 1237.58C779.888 1309.56 825.651 1426.26 946.595 1417.54C983.63 1414.87 1100.4 1319.75 1148.43 1323.45C1196.46 1327.16 1266.65 1293.81 1355.32 1297.52C1443.99 1301.22 1495.42 1323.87 1536.06 1220.13C1576.7 1116.39 1598.97 814.579 1573.11 766.415C1547.25 718.252 1436.48 554.295 1440.18 446.853C1443.87 339.411 1197.27 444.917 1089.33 402.136Z" fill="url(#paint2_radial)"/>
<path d="M1089.33 402.136C926.982 337.788 908.283 463.918 845.476 482.442C694 538.016 749.418 600.999 679.222 693.619C609.026 786.239 627.498 749.192 631.193 852.929C634.888 956.666 601.195 1075.15 601.195 1116.52C601.195 1203.77 660.213 1198.21 702.527 1237.58C779.888 1309.56 825.651 1426.26 946.595 1417.54C983.63 1414.87 1100.4 1319.75 1148.43 1323.45C1196.46 1327.16 1266.65 1293.81 1355.32 1297.52C1443.99 1301.22 1495.42 1323.87 1536.06 1220.13C1576.7 1116.39 1598.97 814.579 1573.11 766.415C1547.25 718.252 1436.48 554.295 1440.18 446.853C1443.87 339.411 1197.27 444.917 1089.33 402.136Z" fill="url(#paint3_radial)"/>
<path d="M1089.33 402.136C926.982 337.788 908.283 463.918 845.476 482.442C694 538.016 749.418 600.999 679.222 693.619C609.026 786.239 627.498 749.192 631.193 852.929C634.888 956.666 601.195 1075.15 601.195 1116.52C601.195 1203.77 660.213 1198.21 702.527 1237.58C779.888 1309.56 825.651 1426.26 946.595 1417.54C983.63 1414.87 1100.4 1319.75 1148.43 1323.45C1196.46 1327.16 1266.65 1293.81 1355.32 1297.52C1443.99 1301.22 1495.42 1323.87 1536.06 1220.13C1576.7 1116.39 1598.97 814.579 1573.11 766.415C1547.25 718.252 1436.48 554.295 1440.18 446.853C1443.87 339.411 1197.27 444.917 1089.33 402.136Z" fill="url(#paint4_radial)"/>
<path d="M1089.33 402.136C926.982 337.788 908.283 463.918 845.476 482.442C694 538.016 749.418 600.999 679.222 693.619C609.026 786.239 627.498 749.192 631.193 852.929C634.888 956.666 601.195 1075.15 601.195 1116.52C601.195 1203.77 660.213 1198.21 702.527 1237.58C779.888 1309.56 825.651 1426.26 946.595 1417.54C983.63 1414.87 1100.4 1319.75 1148.43 1323.45C1196.46 1327.16 1266.65 1293.81 1355.32 1297.52C1443.99 1301.22 1495.42 1323.87 1536.06 1220.13C1576.7 1116.39 1598.97 814.579 1573.11 766.415C1547.25 718.252 1436.48 554.295 1440.18 446.853C1443.87 339.411 1197.27 444.917 1089.33 402.136Z" fill="url(#paint5_radial)"/>
<path d="M1089.33 402.136C926.982 337.788 908.283 463.918 845.476 482.442C694 538.016 749.418 600.999 679.222 693.619C609.026 786.239 627.498 749.192 631.193 852.929C634.888 956.666 601.195 1075.15 601.195 1116.52C601.195 1203.77 660.213 1198.21 702.527 1237.58C779.888 1309.56 825.651 1426.26 946.595 1417.54C983.63 1414.87 1100.4 1319.75 1148.43 1323.45C1196.46 1327.16 1266.65 1293.81 1355.32 1297.52C1443.99 1301.22 1495.42 1323.87 1536.06 1220.13C1576.7 1116.39 1598.97 814.579 1573.11 766.415C1547.25 718.252 1436.48 554.295 1440.18 446.853C1443.87 339.411 1197.27 444.917 1089.33 402.136Z" fill="url(#paint6_radial)"/>
</g>
</g>
<defs>
<filter id="filter0_f" x="-691.566" y="-489.956" width="1667.96" height="1667.96" filterUnits="userSpaceOnUse" color-interpolation-filters="sRGB">
<feFlood flood-opacity="0" result="BackgroundImageFix"/>
<feBlend mode="normal" in="SourceGraphic" in2="BackgroundImageFix" result="shape"/>
<feGaussianBlur stdDeviation="125" result="effect1_foregroundBlur"/>
</filter>
<filter id="filter1_f" x="358" y="-811.289" width="1740.74" height="1741.29" filterUnits="userSpaceOnUse" color-interpolation-filters="sRGB">
<feFlood flood-opacity="0" result="BackgroundImageFix"/>
<feBlend mode="normal" in="SourceGraphic" in2="BackgroundImageFix" result="shape"/>
<feGaussianBlur stdDeviation="125" result="effect1_foregroundBlur"/>
</filter>
<filter id="filter2_f" x="351.195" y="134" width="1483" height="1534" filterUnits="userSpaceOnUse" color-interpolation-filters="sRGB">
<feFlood flood-opacity="0" result="BackgroundImageFix"/>
<feBlend mode="normal" in="SourceGraphic" in2="BackgroundImageFix" result="shape"/>
<feGaussianBlur stdDeviation="125" result="effect1_foregroundBlur"/>
</filter>
<linearGradient id="paint0_linear" x1="-42.036" y1="49.5686" x2="879.028" y2="1462.77" gradientUnits="userSpaceOnUse">
<stop stop-color="#5952BD"/>
<stop offset="0.484375" stop-color="#8E4D63"/>
<stop offset="1" stop-color="#FFAE50"/>
</linearGradient>
<radialGradient id="paint1_radial" cx="0" cy="0" r="1" gradientUnits="userSpaceOnUse" gradientTransform="translate(759.259 567.942) rotate(14.2884) scale(240.186 262.075)">
<stop stop-color="#0038FF"/>
<stop offset="1" stop-color="#F2F2F2"/>
</radialGradient>
<radialGradient id="paint2_radial" cx="0" cy="0" r="1" gradientUnits="userSpaceOnUse" gradientTransform="translate(677.979 879.153) rotate(-1.13396) scale(791.774 864.224)">
<stop stop-color="#FF7300"/>
<stop offset="0.478602" stop-color="#FF7300" stop-opacity="0"/>
</radialGradient>
<radialGradient id="paint3_radial" cx="0" cy="0" r="1" gradientUnits="userSpaceOnUse" gradientTransform="translate(1139.8 523.483) rotate(112.089) scale(343.861 373.526)">
<stop stop-color="#ED7448"/>
<stop offset="1" stop-color="#ED7448" stop-opacity="0"/>
</radialGradient>
<radialGradient id="paint4_radial" cx="0" cy="0" r="1" gradientUnits="userSpaceOnUse" gradientTransform="translate(1387.33 1242.23) rotate(-114.781) scale(220.356 239.413)">
<stop stop-color="#0466C7"/>
<stop offset="1" stop-color="#0866C4" stop-opacity="0"/>
</radialGradient>
<radialGradient id="paint5_radial" cx="0" cy="0" r="1" gradientUnits="userSpaceOnUse" gradientTransform="translate(721.05 1241.94) rotate(-15.7518) scale(329.442 345.592)">
<stop stop-color="#0D3356"/>
<stop offset="1" stop-color="#0D3356" stop-opacity="0"/>
</radialGradient>
<radialGradient id="paint6_radial" cx="0" cy="0" r="1" gradientUnits="userSpaceOnUse" gradientTransform="translate(1309.75 879.153) rotate(-173.017) scale(487.601 532.175)">
<stop stop-color="#F5B3B0"/>
<stop offset="1" stop-color="#F5B3B0" stop-opacity="0"/>
</radialGradient>
<clipPath id="clip0">
<rect width="1440" height="2229" fill="white"/>
</clipPath>
</defs>
</svg>
