<svg width="52" height="60" viewBox="0 0 52 60" fill="none" xmlns="http://www.w3.org/2000/svg">
<path d="M27.4172 58.8188C27.4172 59.4696 26.8869 59.9999 26.2349 59.9999C25.5841 59.9999 25.0538 59.4696 25.0538 58.8188C25.0538 58.1681 25.5841 57.6377 26.2349 57.6377C26.8869 57.6377 27.4172 58.1681 27.4172 58.8188ZM1.42112 58.8188V57.3247C1.42112 49.4501 6.76206 45.1558 9.10065 43.7539C12.2767 41.8511 15.6882 40.4125 19.2558 39.4673V37.5656C18.661 37.0406 18.1172 36.4436 17.6367 35.7781C16.222 33.8188 15.0673 31.6945 14.1971 29.4516C13.4007 29.3428 12.6725 28.836 12.2981 28.0431C11.9411 27.2873 9.46443 22.7058 9.08494 21.8905C8.12293 19.8234 9.38021 17.7813 10.9741 17.1239C11.2395 17.0144 11.5123 16.9335 11.7899 16.8873C11.5318 15.8316 11.4014 14.7458 11.4014 13.6418C11.4014 6.11958 17.5211 -6.10352e-05 25.0432 -6.10352e-05C26.3651 -6.10352e-05 27.617 0.505569 28.5683 1.42364C28.5784 1.43344 28.5944 1.43344 28.6045 1.42364C29.556 0.505569 30.8079 -6.10352e-05 32.1298 -6.10352e-05C37.2422 -6.10352e-05 41.4014 4.15919 41.4014 9.27159V11.4225C41.4014 13.2746 41.1471 15.0977 40.6453 16.8649C40.9289 16.9108 41.212 16.9849 41.4806 17.1064C43.4417 17.9945 44.2075 20.1891 43.3696 21.873C42.9691 22.6779 40.5136 27.2695 40.1564 28.0256C39.7821 28.818 39.0542 29.3248 38.2584 29.434C37.3877 31.6823 36.2313 33.8116 34.8137 35.7753C34.3327 36.4416 33.7883 37.0394 33.1928 37.565V39.4672C36.7602 40.4124 40.1718 41.851 43.3479 43.7538C45.6865 45.1557 51.0274 49.45 51.0274 57.3246V58.8188C51.0274 59.4712 50.4986 59.9999 49.8463 59.9999H31.5522C31.551 59.9999 31.551 59.9999 31.5499 59.9999C30.873 59.9999 30.3264 59.4275 30.3714 58.7398C30.4125 58.1121 30.9623 57.6377 31.5913 57.6377H48.6652C48.6652 52.6504 46.1625 48.1948 42.1325 45.7806C39.2876 44.0758 36.2408 42.7656 33.0575 41.8775C32.4209 45.0681 29.5994 47.4803 26.2243 47.4803C22.8493 47.4803 20.0276 45.0682 19.391 41.8775C16.2084 42.7656 13.1608 44.0758 10.316 45.7806C6.28608 48.1948 3.78332 52.5133 3.78332 57.6377H20.9211C21.5991 57.6377 22.145 58.2132 22.0983 58.9009C22.0557 59.5275 21.5062 59.9999 20.8782 59.9999H2.60222C1.9499 59.9999 1.42112 59.4712 1.42112 58.8188ZM13.7679 13.8227C13.8769 13.6946 15.5067 11.6929 18.3117 11.6929C19.7108 11.6929 21.0547 12.1804 22.1189 13.0497C23.0992 13.8504 24.3474 14.2913 25.6337 14.2913C28.6778 14.2913 31.1163 11.843 31.1851 8.71754C31.1993 8.07561 31.7236 7.56254 32.3658 7.56242C33.0078 7.5623 33.5323 8.07514 33.5469 8.71706C33.5808 10.2253 34.3925 11.5332 35.6656 12.1302C36.9177 12.7175 37.9655 13.6065 38.7339 14.6943C38.9371 13.6203 39.0393 12.5273 39.0393 11.4226V9.27159C39.0393 5.46171 35.9398 2.36214 32.1299 2.36214C31.4231 2.36214 30.7538 2.6325 30.2451 3.12336C29.3151 4.02124 27.858 4.02112 26.9279 3.12336C26.4193 2.6325 25.7499 2.36214 25.0432 2.36214C18.8236 2.36214 13.7084 7.35703 13.7679 13.8227ZM30.8306 39.1385C28.0341 40.4585 24.8032 40.6108 21.618 39.139V40.5117C21.618 43.0517 23.6843 45.118 26.2243 45.118C28.7642 45.118 30.8306 43.0517 30.8306 40.5117V39.1385ZM32.8984 34.3927C34.3635 32.3633 35.525 30.1416 36.3479 27.788C36.4923 27.3749 37.0409 26.75 37.9706 27.1158C38.4088 26.1824 40.8762 21.6199 41.2338 20.864C41.5063 20.2882 41.1768 19.5383 40.5575 19.2808C40.2078 19.1355 39.8209 19.1608 39.4808 19.3346C38.7477 19.7091 37.841 19.2671 37.7475 18.4569C37.535 16.6176 36.3427 15.0569 34.6625 14.269C33.8133 13.8707 33.0891 13.2865 32.5249 12.5716C32.1695 13.211 31.7081 13.7864 31.2015 14.3323C28.9598 16.7488 24.2734 17.8232 20.6245 14.8793C19.2011 13.7308 17.0841 13.7999 15.7779 15.125C15.0673 15.8458 14.6495 16.8188 14.6495 17.813V18.278C14.6532 19.1455 13.7313 19.7246 12.9385 19.3336C12.6102 19.1717 12.2348 19.1645 11.897 19.2987C11.3614 19.5113 10.9042 20.2047 11.2207 20.8817C11.5751 21.6395 14.0969 26.2703 14.4704 27.116C15.5105 26.754 15.9986 27.4969 16.1067 27.805C16.9304 30.1529 18.0895 32.3703 19.5519 34.3955C21.1245 36.5735 23.5565 37.8226 26.2239 37.8224C28.8924 37.8219 31.3252 36.5719 32.8984 34.3927ZM51.618 7.08655V1.18104C51.618 0.528719 51.0892 -6.10352e-05 50.4369 -6.10352e-05H44.5314C43.879 -6.10352e-05 43.3503 0.528719 43.3503 1.18104C43.3503 1.83336 43.879 2.36214 44.5314 2.36214H49.2558V7.08655C49.2558 7.73888 49.7845 8.26766 50.4369 8.26766C51.0892 8.26766 51.618 7.73888 51.618 7.08655ZM51.618 39.3307V33.4251C51.618 32.7728 51.0892 32.244 50.4369 32.244C49.7845 32.244 49.2558 32.7728 49.2558 33.4251V38.1495H44.5314C43.879 38.1495 43.3503 38.6783 43.3503 39.3307C43.3503 39.983 43.879 40.5117 44.5314 40.5117H50.4369C51.0892 40.5117 51.618 39.983 51.618 39.3307ZM3.19277 7.08655V2.36214H7.91718C8.5695 2.36214 9.09828 1.83336 9.09828 1.18104C9.09828 0.528719 8.5695 -6.10352e-05 7.91718 -6.10352e-05H2.01167C1.35935 -6.10352e-05 0.830566 0.528719 0.830566 1.18104V7.08655C0.830566 7.73888 1.35935 8.26766 2.01167 8.26766C2.66399 8.26766 3.19277 7.73888 3.19277 7.08655ZM9.09828 39.3307C9.09828 38.6783 8.5695 38.1495 7.91718 38.1495H3.19277V33.4251C3.19277 32.7728 2.66399 32.244 2.01167 32.244C1.35935 32.244 0.830566 32.7728 0.830566 33.4251V39.3307C0.830566 39.983 1.35935 40.5117 2.01167 40.5117H7.91718C8.5695 40.5117 9.09828 39.983 9.09828 39.3307Z" fill="#5d5375"/>
</svg>
