<svg width="21" height="20" viewBox="0 0 21 20" fill="none" xmlns="http://www.w3.org/2000/svg">
<path d="M17.7598 14.9141C17.3914 14.0414 16.8567 13.2486 16.1856 12.5801C15.5165 11.9096 14.7239 11.375 13.8516 11.0059C13.8438 11.002 13.836 11 13.8282 10.9961C15.045 10.1172 15.836 8.68555 15.836 7.07031C15.836 4.39453 13.668 2.22656 10.9922 2.22656C8.31645 2.22656 6.14849 4.39453 6.14849 7.07031C6.14849 8.68555 6.9395 10.1172 8.1563 10.998C8.14849 11.002 8.14067 11.0039 8.13286 11.0078C7.25786 11.377 6.47271 11.9062 5.79888 12.582C5.12839 13.2511 4.59381 14.0437 4.22466 14.916C3.86201 15.77 3.66642 16.6856 3.64849 17.6133C3.64797 17.6341 3.65162 17.6549 3.65924 17.6743C3.66686 17.6937 3.67829 17.7114 3.69285 17.7263C3.70741 17.7412 3.72481 17.7531 3.74403 17.7612C3.76324 17.7693 3.78388 17.7734 3.80474 17.7734H4.97661C5.06255 17.7734 5.13091 17.7051 5.13286 17.6211C5.17192 16.1133 5.77739 14.7012 6.8477 13.6309C7.95513 12.5234 9.42583 11.9141 10.9922 11.9141C12.5586 11.9141 14.0293 12.5234 15.1368 13.6309C16.2071 14.7012 16.8125 16.1133 16.8516 17.6211C16.8536 17.707 16.9219 17.7734 17.0079 17.7734H18.1797C18.2006 17.7734 18.2212 17.7693 18.2404 17.7612C18.2597 17.7531 18.2771 17.7412 18.2916 17.7263C18.3062 17.7114 18.3176 17.6937 18.3252 17.6743C18.3329 17.6549 18.3365 17.6341 18.336 17.6133C18.3165 16.6797 18.1231 15.7715 17.7598 14.9141ZM10.9922 10.4297C10.0958 10.4297 9.252 10.0801 8.61724 9.44531C7.98247 8.81055 7.63286 7.9668 7.63286 7.07031C7.63286 6.17383 7.98247 5.33008 8.61724 4.69531C9.252 4.06055 10.0958 3.71094 10.9922 3.71094C11.8887 3.71094 12.7325 4.06055 13.3672 4.69531C14.002 5.33008 14.3516 6.17383 14.3516 7.07031C14.3516 7.9668 14.002 8.81055 13.3672 9.44531C12.7325 10.0801 11.8887 10.4297 10.9922 10.4297Z" fill="#55A4FF"/>
</svg>
