<svg width="1440" height="528" viewBox="0 0 1440 528" fill="none" xmlns="http://www.w3.org/2000/svg">
<rect width="1440" height="528" fill="#C4C4C4"/>
<rect width="1440" height="528" fill="url(#paint0_linear)"/>
<g filter="url(#filter0_f)">
<circle cx="218.811" cy="355.503" r="504.474" transform="rotate(-90 218.811 355.503)" fill="#4F40A3"/>
</g>
<g filter="url(#filter1_f)">
<ellipse cx="1156.92" cy="109.592" rx="536.148" ry="535.909" transform="rotate(-90 1156.92 109.592)" fill="#FFAE50"/>
</g>
<g filter="url(#filter2_f)">
<path d="M1036.81 405.706C896.568 350.118 880.415 459.076 826.159 475.079C695.305 523.086 743.178 577.495 682.539 657.505C621.899 737.516 637.857 705.513 641.048 795.127C644.24 884.741 615.135 987.098 615.135 1022.83C615.135 1098.2 666.118 1093.4 702.671 1127.41C769.5 1189.59 809.032 1290.4 913.511 1282.87C945.503 1280.56 1046.38 1198.39 1087.87 1201.59C1129.36 1204.79 1190 1175.99 1266.59 1179.19C1343.19 1182.39 1387.62 1201.95 1422.73 1112.33C1457.83 1022.72 1477.07 761.998 1454.73 720.391C1432.39 678.785 1336.71 537.15 1339.9 444.335C1343.09 351.521 1130.05 442.663 1036.81 405.706Z" fill="url(#paint1_radial)"/>
<path d="M1036.81 405.706C896.568 350.118 880.415 459.076 826.159 475.079C695.305 523.086 743.178 577.495 682.539 657.505C621.899 737.516 637.857 705.513 641.048 795.127C644.24 884.741 615.135 987.098 615.135 1022.83C615.135 1098.2 666.118 1093.4 702.671 1127.41C769.5 1189.59 809.032 1290.4 913.511 1282.87C945.503 1280.56 1046.38 1198.39 1087.87 1201.59C1129.36 1204.79 1190 1175.99 1266.59 1179.19C1343.19 1182.39 1387.62 1201.95 1422.73 1112.33C1457.83 1022.72 1477.07 761.998 1454.73 720.391C1432.39 678.785 1336.71 537.15 1339.9 444.335C1343.09 351.521 1130.05 442.663 1036.81 405.706Z" fill="url(#paint2_radial)"/>
<path d="M1036.81 405.706C896.568 350.118 880.415 459.076 826.159 475.079C695.305 523.086 743.178 577.495 682.539 657.505C621.899 737.516 637.857 705.513 641.048 795.127C644.24 884.741 615.135 987.098 615.135 1022.83C615.135 1098.2 666.118 1093.4 702.671 1127.41C769.5 1189.59 809.032 1290.4 913.511 1282.87C945.503 1280.56 1046.38 1198.39 1087.87 1201.59C1129.36 1204.79 1190 1175.99 1266.59 1179.19C1343.19 1182.39 1387.62 1201.95 1422.73 1112.33C1457.83 1022.72 1477.07 761.998 1454.73 720.391C1432.39 678.785 1336.71 537.15 1339.9 444.335C1343.09 351.521 1130.05 442.663 1036.81 405.706Z" fill="url(#paint3_radial)"/>
<path d="M1036.81 405.706C896.568 350.118 880.415 459.076 826.159 475.079C695.305 523.086 743.178 577.495 682.539 657.505C621.899 737.516 637.857 705.513 641.048 795.127C644.24 884.741 615.135 987.098 615.135 1022.83C615.135 1098.2 666.118 1093.4 702.671 1127.41C769.5 1189.59 809.032 1290.4 913.511 1282.87C945.503 1280.56 1046.38 1198.39 1087.87 1201.59C1129.36 1204.79 1190 1175.99 1266.59 1179.19C1343.19 1182.39 1387.62 1201.95 1422.73 1112.33C1457.83 1022.72 1477.07 761.998 1454.73 720.391C1432.39 678.785 1336.71 537.15 1339.9 444.335C1343.09 351.521 1130.05 442.663 1036.81 405.706Z" fill="url(#paint4_radial)"/>
<path d="M1036.81 405.706C896.568 350.118 880.415 459.076 826.159 475.079C695.305 523.086 743.178 577.495 682.539 657.505C621.899 737.516 637.857 705.513 641.048 795.127C644.24 884.741 615.135 987.098 615.135 1022.83C615.135 1098.2 666.118 1093.4 702.671 1127.41C769.5 1189.59 809.032 1290.4 913.511 1282.87C945.503 1280.56 1046.38 1198.39 1087.87 1201.59C1129.36 1204.79 1190 1175.99 1266.59 1179.19C1343.19 1182.39 1387.62 1201.95 1422.73 1112.33C1457.83 1022.72 1477.07 761.998 1454.73 720.391C1432.39 678.785 1336.71 537.15 1339.9 444.335C1343.09 351.521 1130.05 442.663 1036.81 405.706Z" fill="url(#paint5_radial)"/>
<path d="M1036.81 405.706C896.568 350.118 880.415 459.076 826.159 475.079C695.305 523.086 743.178 577.495 682.539 657.505C621.899 737.516 637.857 705.513 641.048 795.127C644.24 884.741 615.135 987.098 615.135 1022.83C615.135 1098.2 666.118 1093.4 702.671 1127.41C769.5 1189.59 809.032 1290.4 913.511 1282.87C945.503 1280.56 1046.38 1198.39 1087.87 1201.59C1129.36 1204.79 1190 1175.99 1266.59 1179.19C1343.19 1182.39 1387.62 1201.95 1422.73 1112.33C1457.83 1022.72 1477.07 761.998 1454.73 720.391C1432.39 678.785 1336.71 537.15 1339.9 444.335C1343.09 351.521 1130.05 442.663 1036.81 405.706Z" fill="url(#paint6_radial)"/>
</g>
<g clip-path="url(#clip0)">
<rect width="1035.78" height="1465.76" transform="translate(-9.59473 645.741) rotate(-90)" fill="white"/>
<rect x="-9.59473" y="645.741" width="1035.78" height="1465.76" transform="rotate(-90 -9.59473 645.741)" fill="#571D6B"/>
<g filter="url(#filter3_f)">
<circle cx="-278.55" cy="-719.923" r="1102.8" transform="rotate(-90 -278.55 -719.923)" fill="#4742B0"/>
</g>
<g filter="url(#filter4_f)">
<circle cx="1560.61" cy="555.219" r="1046.23" transform="rotate(-90 1560.61 555.219)" fill="#FFB865"/>
</g>
<g filter="url(#filter5_f)">
<path d="M343.968 488.491C358.19 685.197 468.9 691.811 537.804 766.649C620.485 831.881 657.275 890.012 732.453 837.624C807.631 785.235 892.487 770.776 988.62 748.459C1084.75 726.142 1197.18 631.044 1244.23 570.339C1291.27 509.634 1399.82 473.08 1469.2 324.218C1538.57 175.356 1456.01 -7.2313 1237.22 -200.991C1018.43 -394.752 626.606 -227.804 553.131 -92.838C479.655 42.1278 522.705 95.8918 434.312 185.41C345.919 274.929 329.745 291.784 343.968 488.491Z" fill="#F4D2D1"/>
<path d="M343.968 488.491C358.19 685.197 468.9 691.811 537.804 766.649C620.485 831.881 657.275 890.012 732.453 837.624C807.631 785.235 892.487 770.776 988.62 748.459C1084.75 726.142 1197.18 631.044 1244.23 570.339C1291.27 509.634 1399.82 473.08 1469.2 324.218C1538.57 175.356 1456.01 -7.2313 1237.22 -200.991C1018.43 -394.752 626.606 -227.804 553.131 -92.838C479.655 42.1278 522.705 95.8918 434.312 185.41C345.919 274.929 329.745 291.784 343.968 488.491Z" fill="url(#paint7_radial)"/>
<path d="M343.968 488.491C358.19 685.197 468.9 691.811 537.804 766.649C620.485 831.881 657.275 890.012 732.453 837.624C807.631 785.235 892.487 770.776 988.62 748.459C1084.75 726.142 1197.18 631.044 1244.23 570.339C1291.27 509.634 1399.82 473.08 1469.2 324.218C1538.57 175.356 1456.01 -7.2313 1237.22 -200.991C1018.43 -394.752 626.606 -227.804 553.131 -92.838C479.655 42.1278 522.705 95.8918 434.312 185.41C345.919 274.929 329.745 291.784 343.968 488.491Z" fill="url(#paint8_radial)"/>
<path d="M343.968 488.491C358.19 685.197 468.9 691.811 537.804 766.649C620.485 831.881 657.275 890.012 732.453 837.624C807.631 785.235 892.487 770.776 988.62 748.459C1084.75 726.142 1197.18 631.044 1244.23 570.339C1291.27 509.634 1399.82 473.08 1469.2 324.218C1538.57 175.356 1456.01 -7.2313 1237.22 -200.991C1018.43 -394.752 626.606 -227.804 553.131 -92.838C479.655 42.1278 522.705 95.8918 434.312 185.41C345.919 274.929 329.745 291.784 343.968 488.491Z" fill="url(#paint9_radial)"/>
<path d="M343.968 488.491C358.19 685.197 468.9 691.811 537.804 766.649C620.485 831.881 657.275 890.012 732.453 837.624C807.631 785.235 892.487 770.776 988.62 748.459C1084.75 726.142 1197.18 631.044 1244.23 570.339C1291.27 509.634 1399.82 473.08 1469.2 324.218C1538.57 175.356 1456.01 -7.2313 1237.22 -200.991C1018.43 -394.752 626.606 -227.804 553.131 -92.838C479.655 42.1278 522.705 95.8918 434.312 185.41C345.919 274.929 329.745 291.784 343.968 488.491Z" fill="url(#paint10_radial)"/>
</g>
</g>
<defs>
<filter id="filter0_f" x="-535.663" y="-398.971" width="1508.95" height="1508.95" filterUnits="userSpaceOnUse" color-interpolation-filters="sRGB">
<feFlood flood-opacity="0" result="BackgroundImageFix"/>
<feBlend mode="normal" in="SourceGraphic" in2="BackgroundImageFix" result="shape"/>
<feGaussianBlur stdDeviation="125" result="effect1_foregroundBlur"/>
</filter>
<filter id="filter1_f" x="371.013" y="-676.556" width="1571.82" height="1572.3" filterUnits="userSpaceOnUse" color-interpolation-filters="sRGB">
<feFlood flood-opacity="0" result="BackgroundImageFix"/>
<feBlend mode="normal" in="SourceGraphic" in2="BackgroundImageFix" result="shape"/>
<feGaussianBlur stdDeviation="125" result="effect1_foregroundBlur"/>
</filter>
<filter id="filter2_f" x="365.135" y="140.039" width="1349.17" height="1393.23" filterUnits="userSpaceOnUse" color-interpolation-filters="sRGB">
<feFlood flood-opacity="0" result="BackgroundImageFix"/>
<feBlend mode="normal" in="SourceGraphic" in2="BackgroundImageFix" result="shape"/>
<feGaussianBlur stdDeviation="125" result="effect1_foregroundBlur"/>
</filter>
<filter id="filter3_f" x="-1816.55" y="-2257.93" width="3076.01" height="3076.01" filterUnits="userSpaceOnUse" color-interpolation-filters="sRGB">
<feFlood flood-opacity="0" result="BackgroundImageFix"/>
<feBlend mode="normal" in="SourceGraphic" in2="BackgroundImageFix" result="shape"/>
<feGaussianBlur stdDeviation="217.601" result="effect1_foregroundBlur"/>
</filter>
<filter id="filter4_f" x="79.1867" y="-926.209" width="2962.86" height="2962.86" filterUnits="userSpaceOnUse" color-interpolation-filters="sRGB">
<feFlood flood-opacity="0" result="BackgroundImageFix"/>
<feBlend mode="normal" in="SourceGraphic" in2="BackgroundImageFix" result="shape"/>
<feGaussianBlur stdDeviation="217.601" result="effect1_foregroundBlur"/>
</filter>
<filter id="filter5_f" x="61.3928" y="-512.717" width="1606.55" height="1550.71" filterUnits="userSpaceOnUse" color-interpolation-filters="sRGB">
<feFlood flood-opacity="0" result="BackgroundImageFix"/>
<feBlend mode="normal" in="SourceGraphic" in2="BackgroundImageFix" result="shape"/>
<feGaussianBlur stdDeviation="13.0561" result="effect1_foregroundBlur"/>
</filter>
<linearGradient id="paint0_linear" x1="-42.036" y1="11.7417" x2="29.8852" y2="477.594" gradientUnits="userSpaceOnUse">
<stop stop-color="#5952BD"/>
<stop offset="0.484375" stop-color="#8E4D63"/>
<stop offset="1" stop-color="#FFAE50"/>
</linearGradient>
<radialGradient id="paint1_radial" cx="0" cy="0" r="1" gradientUnits="userSpaceOnUse" gradientTransform="translate(751.679 548.938) rotate(14.2883) scale(207.486 226.395)">
<stop stop-color="#0038FF"/>
<stop offset="1" stop-color="#F2F2F2"/>
</radialGradient>
<radialGradient id="paint2_radial" cx="0" cy="0" r="1" gradientUnits="userSpaceOnUse" gradientTransform="translate(681.465 817.78) rotate(-1.13396) scale(683.98 746.567)">
<stop stop-color="#FF7300"/>
<stop offset="0.478602" stop-color="#FF7300" stop-opacity="0"/>
</radialGradient>
<radialGradient id="paint3_radial" cx="0" cy="0" r="1" gradientUnits="userSpaceOnUse" gradientTransform="translate(1080.41 510.532) rotate(112.089) scale(297.047 322.674)">
<stop stop-color="#ED7448"/>
<stop offset="1" stop-color="#ED7448" stop-opacity="0"/>
</radialGradient>
<radialGradient id="paint4_radial" cx="0" cy="0" r="1" gradientUnits="userSpaceOnUse" gradientTransform="translate(1294.24 1131.43) rotate(-114.781) scale(190.356 206.818)">
<stop stop-color="#0466C7"/>
<stop offset="1" stop-color="#0866C4" stop-opacity="0"/>
</radialGradient>
<radialGradient id="paint5_radial" cx="0" cy="0" r="1" gradientUnits="userSpaceOnUse" gradientTransform="translate(718.672 1131.18) rotate(-15.7518) scale(284.591 298.542)">
<stop stop-color="#0D3356"/>
<stop offset="1" stop-color="#0D3356" stop-opacity="0"/>
</radialGradient>
<radialGradient id="paint6_radial" cx="0" cy="0" r="1" gradientUnits="userSpaceOnUse" gradientTransform="translate(1227.22 817.78) rotate(-173.017) scale(421.218 459.724)">
<stop stop-color="#F5B3B0"/>
<stop offset="1" stop-color="#F5B3B0" stop-opacity="0"/>
</radialGradient>
<radialGradient id="paint7_radial" cx="0" cy="0" r="1" gradientUnits="userSpaceOnUse" gradientTransform="translate(371.595 255.366) rotate(-12.8049) scale(1260.56 1026.39)">
<stop stop-color="#1F5EFF"/>
<stop offset="1" stop-color="white" stop-opacity="0"/>
</radialGradient>
<radialGradient id="paint8_radial" cx="0" cy="0" r="1" gradientUnits="userSpaceOnUse" gradientTransform="translate(1457.3 230.699) rotate(-173.543) scale(1178.18 959.319)">
<stop stop-color="#FE790B"/>
<stop offset="1" stop-color="white" stop-opacity="0"/>
</radialGradient>
<radialGradient id="paint9_radial" cx="0" cy="0" r="1" gradientUnits="userSpaceOnUse" gradientTransform="translate(692.529 800.592) rotate(-75.0405) scale(938.047 763.793)">
<stop stop-color="#FF3D00"/>
<stop offset="1" stop-color="#FF3D00" stop-opacity="0"/>
</radialGradient>
<radialGradient id="paint10_radial" cx="0" cy="0" r="1" gradientUnits="userSpaceOnUse" gradientTransform="translate(1405.3 51.9649) rotate(145.462) scale(568.658 463.022)">
<stop stop-color="#3338B3"/>
<stop offset="1" stop-color="#121788" stop-opacity="0"/>
</radialGradient>
<clipPath id="clip0">
<rect width="1035.78" height="1465.76" fill="white" transform="translate(-9.59473 645.741) rotate(-90)"/>
</clipPath>
</defs>
</svg>
