<svg width="37" height="38" viewBox="0 0 37 38" fill="none" xmlns="http://www.w3.org/2000/svg">
<g clip-path="url(#clip0)">
<path d="M4.62498 0.5H24.2731L34.6874 10.8739V35.1875C34.6874 36.4651 33.6515 37.5 32.375 37.5H4.62498C3.34844 37.5 2.3125 36.4651 2.3125 35.1875V2.81248C2.3125 1.53487 3.34856 0.5 4.62498 0.5Z" fill="#E2574C"/>
<path d="M34.654 10.9061H26.5937C25.3172 10.9061 24.2812 9.87013 24.2812 8.5936V0.522949L34.654 10.9061Z" fill="#B53629"/>
<path d="M26.0135 18.0323C26.4008 18.0323 26.5905 17.6946 26.5905 17.3674C26.5905 17.0286 26.3927 16.7014 26.0135 16.7014H23.8073C23.376 16.7014 23.1356 17.0587 23.1356 17.453V22.8746C23.1356 23.3579 23.4107 23.6262 23.7831 23.6262C24.1531 23.6262 24.4295 23.3579 24.4295 22.8746V21.3865H25.7638C26.1777 21.3865 26.3847 21.0477 26.3847 20.7113C26.3847 20.3818 26.1777 20.0545 25.7638 20.0545H24.4295V18.0323H26.0135ZM18.5568 16.7014H16.9426C16.5044 16.7014 16.1934 17.0021 16.1934 17.4483V22.8793C16.1934 23.4331 16.6408 23.6065 16.9611 23.6065H18.655C20.6599 23.6065 21.9838 22.2873 21.9838 20.2511C21.9827 18.0982 20.7364 16.7014 18.5568 16.7014ZM18.6343 22.2677H17.6503V18.0404H18.5372C19.8796 18.0404 20.4635 18.9412 20.4635 20.1841C20.4635 21.3473 19.8899 22.2677 18.6343 22.2677ZM12.7212 16.7014H11.1222C10.67 16.7014 10.418 16.9997 10.418 17.453V22.8746C10.418 23.3579 10.707 23.6262 11.0955 23.6262C11.4839 23.6262 11.773 23.3579 11.773 22.8746V21.2917H12.7754C14.0126 21.2917 15.0336 20.4152 15.0336 19.0058C15.0337 17.6265 14.0486 16.7014 12.7212 16.7014ZM12.6947 20.0199H11.7731V17.9745H12.6947C13.2636 17.9745 13.6255 18.4185 13.6255 18.9977C13.6243 19.576 13.2636 20.0199 12.6947 20.0199Z" fill="white"/>
</g>
<defs>
<clipPath id="clip0">
<rect width="37" height="37" fill="white" transform="translate(0 0.5)"/>
</clipPath>
</defs>
</svg>
